<?xml version="1.0" encoding="UTF-8"?>
<!-- Generator: Adobe Illustrator 21.0.2, SVG Export Plug-In . SVG Version: 6.00 Build 0)  -->
<svg version="1.1" id="Capa_1" xmlns="http://www.w3.org/2000/svg" xmlns:xlink="http://www.w3.org/1999/xlink" x="0px" y="0px" viewBox="0 0 611 84" style="enable-background:new 0 0 611 84;" xml:space="preserve">
<metadata><?xpacket begin="﻿" id="W5M0MpCehiHzreSzNTczkc9d"?>
<x:xmpmeta xmlns:x="adobe:ns:meta/" x:xmptk="Adobe XMP Core 5.6-c137 79.159768, 2016/08/11-13:24:42        ">
   <rdf:RDF xmlns:rdf="http://www.w3.org/1999/02/22-rdf-syntax-ns#">
      <rdf:Description rdf:about=""/>
   </rdf:RDF>
</x:xmpmeta>
                                                                                                    
                                                                                                    
                                                                                                    
                                                                                                    
                                                                                                    
                                                                                                    
                                                                                                    
                                                                                                    
                                                                                                    
                                                                                                    
                                                                                                    
                                                                                                    
                                                                                                    
                                                                                                    
                                                                                                    
                                                                                                    
                                                                                                    
                                                                                                    
                                                                                                    
                                                                                                    
                           
<?xpacket end="w"?></metadata>
<style type="text/css">
	.st0{fill:#FFFFFF;}
</style>
<g>
	<g>
		<g>
			<path class="st0" d="M111.1,50.6h-2.1c0.1-1.9,1.8-2.4,3.5-2.4c1.5,0,3.3,0.3,3.3,2.1v3.9c0,0.7,0.1,1.3,0.3,1.6H114     c-0.1-0.2-0.1-0.5-0.2-0.8c-0.7,0.7-1.6,0.9-2.4,0.9c-1.4,0-2.5-0.7-2.5-2.3c0-1.7,1.2-2.1,2.5-2.3c1.2-0.2,2.4-0.2,2.4-0.9     c0-0.8-0.6-1-1.3-1C111.7,49.6,111.2,49.9,111.1,50.6z M113.8,52.9v-0.8c-0.4,0.3-1,0.3-1.7,0.5c-0.7,0.1-1.2,0.4-1.2,1.1     s0.6,0.9,1.2,0.9C113.7,54.7,113.8,53.4,113.8,52.9z M100.4,55.8v-7.4h2v1c0.6-0.8,1.4-1.2,2.3-1.2c2.2,0,2.7,1.2,2.7,3v4.5h-2.1     v-4.1c0-1.2-0.4-1.8-1.3-1.8c-1.1,0-1.6,0.7-1.6,2.2v3.9C102.4,55.8,100.4,55.8,100.4,55.8z M93.1,52.1c0,1.1,0.4,2.4,1.8,2.4     c1.4,0,1.8-1.2,1.8-2.4c0-1.2-0.4-2.4-1.8-2.4C93.4,49.7,93.1,50.9,93.1,52.1z M91,52.1c0-2.4,1.5-3.9,3.9-3.9s3.9,1.5,3.9,3.9     S97.2,56,94.8,56C92.5,56,91,54.5,91,52.1z M87.4,55.8V45.6h2.1v10.3C89.5,55.8,87.4,55.8,87.4,55.8z M80.3,51.3h3.3     c-0.2-1-0.7-1.6-1.6-1.6C80.8,49.7,80.4,50.7,80.3,51.3z M85.7,52.6h-5.4c0.1,1.3,0.7,1.9,1.8,1.9c0.8,0,1.5-0.5,1.6-0.9h1.8     C85,55.3,83.7,56,82,56c-2.4,0-3.8-1.6-3.8-3.9c0-2.3,1.5-3.9,3.8-3.9C84.7,48.2,85.9,50.4,85.7,52.6z M77,51h-2     c-0.1-0.8-0.7-1.2-1.5-1.2c-1.3,0-1.7,1.3-1.7,2.4s0.4,2.4,1.7,2.4c0.9,0,1.5-0.6,1.6-1.5h2c-0.3,2-1.6,3-3.6,3     c-2.3,0-3.8-1.6-3.8-3.8c0-2.3,1.4-4,3.8-4C75.2,48.2,76.9,49.1,77,51z M64.1,55.8v-7.4h2v1.4c0.4-0.9,1.4-1.6,2.4-1.6     c0.2,0,0.3,0,0.5,0.1v1.9c-0.2,0-0.5-0.1-0.8-0.1c-1.5,0-2,1-2,2.4v3.3L64.1,55.8L64.1,55.8z M57.4,50.6h-2.1     c0.1-1.9,1.8-2.4,3.5-2.4c1.5,0,3.3,0.3,3.3,2.1v3.9c0,0.7,0.1,1.3,0.3,1.6h-2.1c-0.1-0.2-0.1-0.5-0.2-0.8     c-0.7,0.7-1.6,0.9-2.4,0.9c-1.4,0-2.5-0.7-2.5-2.3c0-1.7,1.2-2.1,2.5-2.3c1.2-0.2,2.4-0.2,2.4-0.9c0-0.8-0.6-1-1.3-1     C57.9,49.6,57.5,49.9,57.4,50.6z M60.1,52.9v-0.8c-0.4,0.3-1,0.3-1.7,0.5c-0.7,0.1-1.2,0.4-1.2,1.1s0.6,0.9,1.2,0.9     C60,54.7,60.1,53.4,60.1,52.9z M47.4,47.3v2.4h2.3c0.8,0,1.4-0.4,1.4-1.2c0-0.9-0.8-1.1-1.5-1.1H47.4z M45.1,55.8V45.6h4.8     c2,0,3.3,0.7,3.3,2.5c0,1-0.5,1.7-1.4,2.2c1.2,0.4,1.9,1.3,1.9,2.5c0,2.1-1.8,3-3.6,3C50.1,55.8,45.1,55.8,45.1,55.8z M47.4,51.3     v2.8h2.4c0.8,0,1.7-0.3,1.7-1.3c0-1-0.7-1.4-1.6-1.4L47.4,51.3L47.4,51.3z M110.5,36.8c0,1.1,0.4,2.4,1.8,2.4s1.8-1.2,1.8-2.4     c0-1.2-0.4-2.4-1.8-2.4C110.9,34.4,110.5,35.7,110.5,36.8z M108.5,36.8c0-2.4,1.5-4,3.9-4s3.9,1.5,3.9,4c0,2.4-1.5,3.9-3.9,3.9     C110,40.8,108.5,39.1,108.5,36.8z M114.8,30.2l-2.2,2.1h-1.4l1.4-2.1C112.6,30.2,114.8,30.2,114.8,30.2z M106.2,30.3V32h-2.1     v-1.7H106.2z M104.3,40.6v-7.4h2.1v7.4H104.3z M102.1,35.8h-2c-0.1-0.8-0.7-1.3-1.5-1.3c-1.3,0-1.7,1.3-1.7,2.4     c0,1,0.4,2.4,1.7,2.4c0.9,0,1.5-0.6,1.6-1.5h2c-0.3,2-1.6,3-3.6,3c-2.3,0-3.8-1.6-3.8-3.8c0-2.3,1.4-4,3.8-4     C100.3,32.9,101.9,33.9,102.1,35.8z M88,35.4h-2.1c0.1-1.9,1.8-2.4,3.5-2.4c1.5,0,3.2,0.4,3.2,2.1v3.9c0,0.7,0.1,1.3,0.3,1.6h-2     c-0.1-0.2-0.1-0.5-0.2-0.8c-0.7,0.7-1.6,0.9-2.4,0.9c-1.4,0-2.5-0.7-2.5-2.3c0-1.7,1.2-2.1,2.5-2.3c1.2-0.2,2.4-0.2,2.4-0.9     c0-0.8-0.6-1-1.3-1C88.5,34.3,88.1,34.6,88,35.4z M90.6,37.6v-0.8c-0.4,0.3-1,0.3-1.7,0.5c-0.7,0.1-1.2,0.4-1.2,1.1     s0.6,0.9,1.2,0.9C90.6,39.3,90.6,38.1,90.6,37.6z M82.5,30.9v2.3H84v1.3h-1.5v3.7c0,0.7,0.2,0.8,0.8,0.8c0.2,0,0.4,0,0.7-0.1v1.6     c-0.4,0.1-0.8,0.1-1.2,0.1c-1.2,0-2.4-0.3-2.4-1.8v-4.3h-1.2v-1.3h1.2v-2.3C80.4,30.9,82.5,30.9,82.5,30.9z M77.6,33.1v7.4h-1.9     v-1c-0.6,0.8-1.4,1.2-2.3,1.2c-2.2,0-2.7-1.2-2.7-3v-4.5h2.1v4.1c0,1.2,0.4,1.8,1.3,1.8c1.1,0,1.6-0.7,1.6-2.2v-3.9     C75.7,33.1,77.6,33.1,77.6,33.1z M64.7,39.1c1.3,0,1.8-1.1,1.8-2.4c0-1.1-0.5-2.4-1.8-2.4s-1.8,1.2-1.8,2.4     C62.9,38,63.4,39.1,64.7,39.1z M61,43.1v-10h2v0.9c0.5-0.8,1.3-1.1,2.3-1.1c2.4,0,3.4,1.9,3.4,4c0,2-1.1,3.9-3.3,3.9     c-0.8,0-1.7-0.4-2.3-1.1v3.5H61z M58.5,30.3V32h-2.1v-1.7H58.5z M56.4,40.6v-7.4h2.1v7.4H56.4z M47.4,32.2v6.4h2     c1.3,0,2.5-0.8,2.5-3.1c0-2.1-0.8-3.4-2.9-3.4L47.4,32.2L47.4,32.2z M45.1,40.6V30.3h4.4c2.6,0,4.6,1.7,4.6,5.1     c0,2.9-1.5,5.2-4.6,5.2C49.6,40.6,45.1,40.6,45.1,40.6z"/>
		</g>
	</g>
	<path class="st0" d="M18.8,38.8L17.6,40v4.7h-4.6l-1.2,1.2l1.2,1.2h4.6v4.6l1.2,1.2l1.2-1.2v-4.6h4.6l1.2-1.2l-1.2-1.2H20V40   L18.8,38.8z M18.8,23.9C8.4,23.9,0,32.3,0,42.6s8.4,18.7,18.7,18.7S37.5,53,37.5,42.6S29.1,23.9,18.8,23.9z M25.7,31   c0.4,0,0.8,0.3,0.8,0.8c0,0.4-0.3,0.8-0.8,0.8c-0.4,0-0.8-0.3-0.8-0.8C24.9,31.3,25.2,31,25.7,31z M11.7,35.4v-0.5h14.1v0.5H11.7z    M23.2,36.3v4.3L21,38.5v-2.2H23.2z M16.6,36.3v2.2l-2.2,2.2v-4.4L16.6,36.3L16.6,36.3z M12.7,36.3v6.1l-2.2,2.2v-8.3H12.7z    M11.7,34.2v-0.9h14.1v0.9H11.7z M24.9,36.3h2.2v8.3l-2.2-2.2V36.3z M24.4,31.7c0,0.4-0.3,0.8-0.8,0.8c-0.4,0-0.8-0.3-0.8-0.8   c0-0.4,0.3-0.8,0.8-0.8C24.1,31,24.4,31.3,24.4,31.7z M22.7,29.3c0.4,0,0.8,0.3,0.8,0.8c0,0.4-0.3,0.8-0.8,0.8   c-0.4,0-0.8-0.4-0.8-0.8C22,29.6,22.3,29.3,22.7,29.3z M21.7,31c0.4,0,0.8,0.3,0.8,0.8c0,0.4-0.3,0.8-0.8,0.8   c-0.4,0-0.8-0.3-0.8-0.8C20.9,31.3,21.3,31,21.7,31z M20.5,31.7c0,0.4-0.4,0.8-0.8,0.8S19,32.2,19,31.7c0-0.4,0.3-0.8,0.8-0.8   C20.2,31,20.5,31.3,20.5,31.7z M18.8,29.3c0.4,0,0.8,0.3,0.8,0.8c0,0.4-0.3,0.8-0.8,0.8c-0.4,0-0.8-0.4-0.8-0.8   C18,29.6,18.4,29.3,18.8,29.3z M17.8,31c0.4,0,0.8,0.3,0.8,0.8c0,0.4-0.4,0.8-0.8,0.8c-0.4,0-0.8-0.3-0.8-0.8   C17.1,31.3,17.4,31,17.8,31z M16.6,31.7c0,0.4-0.3,0.8-0.8,0.8c-0.4,0-0.8-0.3-0.8-0.8c0-0.4,0.3-0.8,0.8-0.8   C16.2,31,16.6,31.3,16.6,31.7z M14.9,29.3c0.4,0,0.8,0.3,0.8,0.8c0,0.4-0.3,0.8-0.8,0.8c-0.4,0-0.8-0.4-0.8-0.8   C14.2,29.6,14.5,29.3,14.9,29.3z M13.9,31c0.4,0,0.8,0.3,0.8,0.8c0,0.4-0.3,0.8-0.8,0.8c-0.4,0-0.8-0.3-0.8-0.8   C13.2,31.3,13.5,31,13.9,31z M12.7,31.7c0,0.4-0.4,0.8-0.8,0.8c-0.4,0-0.8-0.3-0.8-0.8c0-0.4,0.3-0.8,0.8-0.8   C12.4,31,12.7,31.3,12.7,31.7z M11,29.3c0.4,0,0.8,0.3,0.8,0.8c0,0.4-0.3,0.8-0.8,0.8c-0.4,0-0.8-0.4-0.8-0.8   C10.2,29.6,10.6,29.3,11,29.3z M12.7,55.9h-2.2v-8.8l2.2,2.2V55.9z M16.6,55.9h-2.2V51l2.2,2.2V55.9z M23.2,55.9H21v-2.7l2.2-2.2   V55.9z M27.1,55.9h-2.2v-6.6l2.2-2.2V55.9z M18.8,54.3l-8.5-8.5l8.5-8.5l8.5,8.5L18.8,54.3z M26.6,30.8c-0.4,0-0.8-0.4-0.8-0.8   c0-0.4,0.3-0.8,0.8-0.8c0.4,0,0.8,0.3,0.8,0.8C27.3,30.4,27,30.8,26.6,30.8z"/>
</g>
<g>
	<path class="st0" d="M169.8,55.1c0.1-0.4,0.3-0.8,0.5-1c-0.3-0.1-0.5-0.2-0.7-0.4c0.5-0.8,0.6-1.2,0.7-2.1v-5   c-0.3,1.4-1.1,3.4-1.8,4.3c-0.2,0.3-0.3,0.5-0.4,0.7c-0.1,0.1-0.5,0.8-0.5,1.5c-0.3,0.1-0.6,0-0.8,0c0,0.4,0.1,0.4,0,0.9   c-1.2,0.1-1.6,0.8-3,1.6c-0.7,0.4-1.1,0.6-2.2,0.9c2.4,0,4.2,0.3,5.7-0.8c0.2,0.2,0.3,0.5,0.4,0.8c0.2-0.2,0.7-0.4,0.9-0.5   c0.4,0.4,0.9,0.6,1.6,0.5C170.3,56.1,170.2,55.4,169.8,55.1z M170,54.1c-0.2,0.1-1,0.4-1,0.4l0,0c0-0.1,0-0.2-0.1-0.2l0,0   c0.4-0.2,0.6-0.5,0.6-0.6C169.4,53.8,169.7,54,170,54.1z M169.2,49.9c0.8-2,0.7-1.9,0.8-2.7c0,0.4-0.1,0.8-0.1,1.2   c-0.4,2.2-0.9,3.8-1.6,5.5c0,0-0.2,0-0.3,0c-0.2-0.2-0.2-0.5-0.2-0.5C167.5,52.2,168.6,51.4,169.2,49.9z M167,53.4l0.8,0.7l0,0   c0,0-0.1,0-0.1,0.1l-0.1,0.1l0,0C167.2,54,167,54,167,54C167.1,53.6,167,53.4,167,53.4z M163.2,56.4c-0.4,0.1-0.8,0.1-1,0.1   l0.8-0.3c1.9-0.8,2.4-1.8,3.7-1.9c0.3,0,0.6,0.1,0.8,0.2l0,0c0,0.1,0,0.2,0,0.3l0,0C166.7,55.2,164.6,56,163.2,56.4z M167.8,56.3   c-0.1-0.1-0.1-0.4-0.3-0.6c0.3-0.2,0.3-0.4,0.4-0.6l0,0c0.1,0.1,0.2,0.1,0.3,0.1l0,0L167.8,56.3z M167.9,54.9   c-0.2-0.2-0.2-0.4,0-0.6c0.2-0.2,0.4-0.2,0.6,0c0.2,0.2,0.2,0.4,0,0.6C168.4,55,168.1,55,167.9,54.9z M168.4,55.2   c0.1,0,0.2-0.1,0.3-0.2l1.3,1.3c-0.5,0-0.9-0.1-1.2-0.5C168.6,55.7,168.5,55.5,168.4,55.2z"/>
	<path class="st0" d="M169.8,29.5c0.5-0.4,0.6-1,0.5-1.6c-0.7-0.1-1.2,0.1-1.6,0.5c-0.4-0.1-0.8-0.3-0.9-0.5   c-0.1,0.3-0.3,0.5-0.4,0.8c-1.5-1-3.3-0.7-5.7-0.8c1,0.4,1.5,0.6,2.2,0.9c1.4,0.8,1.8,1.5,3,1.6c0.1,0.6,0.1,0.7,0,0.9   c0.3,0,0.6,0,0.8,0c0,0.8,0.4,1.4,0.5,1.5c0.1,0.2,0.2,0.4,0.4,0.7c0.7,1,1.4,2.9,1.8,4.3v-5c-0.1-0.8-0.2-1.4-0.7-2.1   c0.2-0.2,0.5-0.3,0.7-0.4C170,30.2,169.9,29.8,169.8,29.5z M168.7,28.6c0.3-0.4,0.8-0.5,1.2-0.5l-1.3,1.3c-0.1-0.1-0.2-0.2-0.3-0.2   C168.5,29.1,168.6,28.9,168.7,28.6z M167.8,28.2l0.4,1l0,0c-0.1,0-0.2,0-0.3,0.1l0,0c-0.1-0.2-0.2-0.4-0.4-0.6   C167.6,28.6,167.7,28.4,167.8,28.2z M163.1,28.3l-0.8-0.3c0.3,0,0.6,0,1,0.1c1.4,0.3,3.5,1,4.3,1.5l0,0c0,0.1,0,0.2,0,0.3l0,0   c-0.2,0.1-0.5,0.2-0.8,0.2C165.5,30.2,165,29.1,163.1,28.3z M167.8,30.5l-0.8,0.7c0,0,0.1-0.3-0.1-0.7c0,0,0.3,0,0.7-0.2l0,0   C167.7,30.3,167.7,30.4,167.8,30.5L167.8,30.5L167.8,30.5z M167.9,29.7c0.2-0.2,0.4-0.2,0.6,0c0.2,0.2,0.2,0.4,0,0.6   s-0.4,0.2-0.6,0C167.8,30.1,167.8,29.8,167.9,29.7z M170,36c0.1,0.4,0.1,0.8,0.1,1.2c-0.2-0.8,0-0.8-0.8-2.7   c-0.7-1.5-1.6-2.3-1.3-3.6c0,0,0.1-0.3,0.2-0.5c0.1,0,0.3,0,0.3,0C169,32.4,169.6,34,170,36z M169.4,30.8c0,0-0.2-0.4-0.6-0.6l0,0   c0-0.1,0.1-0.2,0.1-0.2l0,0c0,0,0.8,0.3,1,0.4C169.7,30.5,169.4,30.8,169.4,30.8z"/>
	<path class="st0" d="M152,55.6c-1.4-0.8-1.8-1.5-3-1.6c-0.1-0.6-0.1-0.6,0-0.9c-0.3,0-0.6,0-0.8,0c0-0.8-0.4-1.4-0.5-1.5   c-0.1-0.2-0.2-0.4-0.4-0.7c-0.7-1-1.4-2.9-1.8-4.3v5c0.1,0.8,0.2,1.4,0.7,2.1c-0.2,0.2-0.5,0.3-0.7,0.4c0.2,0.3,0.4,0.7,0.5,1   c-0.5,0.4-0.6,1-0.5,1.6c0.7,0.1,1.2-0.1,1.6-0.5c0.4,0.1,0.8,0.3,0.9,0.5c0.1-0.3,0.3-0.5,0.4-0.8c1.5,1,3.3,0.7,5.7,0.8   C153.1,56.2,152.6,56,152,55.6z M147.8,54l0.8-0.7c0,0-0.1,0.3,0.1,0.7c0,0-0.3,0-0.8,0.2l0,0C147.9,54.2,147.9,54.2,147.8,54   C147.8,54.1,147.8,54.1,147.8,54L147.8,54z M145.7,48.5c-0.1-0.4-0.1-0.8-0.1-1.2c0.2,0.8,0,0.8,0.8,2.7c0.7,1.5,1.6,2.3,1.3,3.6   c0,0-0.1,0.3-0.2,0.5c-0.1,0-0.3,0-0.3,0C146.6,52.2,146.1,50.6,145.7,48.5z M145.7,54.1c0.3-0.1,0.6-0.3,0.6-0.4   c0,0,0.2,0.4,0.6,0.6l0,0c0,0.1-0.1,0.2-0.1,0.2l0,0C146.8,54.5,145.9,54.2,145.7,54.1z M146.9,55.9c-0.3,0.4-0.8,0.5-1.2,0.5   l1.3-1.3c0.1,0.1,0.2,0.2,0.3,0.2C147.2,55.5,147.1,55.7,146.9,55.9z M147.2,54.9c-0.2-0.2-0.2-0.4,0-0.6c0.2-0.2,0.4-0.2,0.6,0   c0.2,0.2,0.2,0.4,0,0.6C147.6,55,147.4,55,147.2,54.9z M147.8,56.3l-0.4-1l0,0c0.1,0,0.2,0,0.3-0.1l0,0c0.1,0.2,0.2,0.4,0.4,0.6   C148,55.9,147.9,56.2,147.8,56.3z M152.5,56.4c-1.4-0.3-3.5-1-4.3-1.5l0,0c0-0.1,0-0.2,0-0.3l0,0c0.2-0.1,0.5-0.2,0.8-0.2   C150.2,54.4,150.7,55.5,152.5,56.4l0.9,0.2C153.2,56.5,152.8,56.5,152.5,56.4z"/>
	<path class="st0" d="M148.4,28.7c-0.2-0.2-0.3-0.5-0.4-0.8c-0.2,0.2-0.7,0.4-0.9,0.5c-0.4-0.4-0.9-0.6-1.6-0.5   c-0.1,0.6,0,1.2,0.5,1.6c-0.1,0.4-0.3,0.8-0.5,1c0.3,0.1,0.5,0.2,0.7,0.4c-0.5,0.8-0.6,1.2-0.7,2.1v5c0.3-1.4,1.1-3.4,1.8-4.3   c0.2-0.3,0.3-0.5,0.4-0.7c0.1-0.1,0.5-0.8,0.5-1.5c0.3-0.1,0.6,0,0.8,0c0-0.4-0.1-0.4,0-0.9c1.2-0.1,1.6-0.8,3-1.6   c0.7-0.4,1.1-0.6,2.2-0.9C151.7,28,149.9,27.7,148.4,28.7z M147.8,28.2c0.1,0.1,0.1,0.4,0.3,0.6c-0.3,0.2-0.3,0.4-0.4,0.6l0,0   c-0.1-0.1-0.2-0.1-0.3-0.1l0,0L147.8,28.2z M145.7,28.1c0.5,0,0.9,0.1,1.2,0.5c0.2,0.2,0.3,0.4,0.4,0.8c-0.1,0-0.2,0.1-0.3,0.2   L145.7,28.1z M145.7,30.4c0.2-0.1,1-0.4,1-0.4l0,0c0,0.1,0,0.2,0.1,0.2l0,0c-0.4,0.2-0.6,0.5-0.6,0.6   C146.2,30.8,146,30.5,145.7,30.4z M146.4,34.6c-0.8,2-0.7,1.9-0.8,2.7c0-0.4,0.1-0.8,0.1-1.2c0.4-2.2,0.9-3.8,1.6-5.5   c0,0,0.2,0,0.3,0c0.2,0.2,0.2,0.5,0.2,0.5C148.1,32.4,147.1,33.1,146.4,34.6z M147.8,30.2c-0.2,0.2-0.4,0.2-0.6,0   c-0.2-0.2-0.2-0.4,0-0.6s0.4-0.2,0.6,0C147.8,29.8,147.8,30.1,147.8,30.2z M148.7,31.1l-0.8-0.7l0,0c0,0,0.1,0,0.1-0.1l0.1-0.1l0,0   c0.4,0.2,0.8,0.2,0.8,0.2C148.6,31,148.7,31.1,148.7,31.1z M148.9,30.2c-0.3,0-0.6-0.1-0.8-0.2l0,0c0-0.1,0-0.2,0-0.3l0,0   c0.8-0.5,2.9-1.2,4.3-1.5c0.4-0.1,0.8-0.1,1-0.1l-0.8,0.3C150.7,29.1,150.2,30.2,148.9,30.2z"/>
	<path class="st0" d="M157.8,28c-6.8,0-12.2,6.4-12.2,14.2c0,7.9,5.5,14.2,12.2,14.2c6.8,0,12.2-6.4,12.2-14.2S164.6,28,157.8,28z    M166.4,35.2c1.1,2,1.9,4.4,1.9,7.1s-0.7,5.1-1.9,7.1V35.2z M149.4,49.4c-1.1-2-1.9-4.4-1.9-7.1s0.7-5.1,1.9-7.1V49.4z M149.4,34.5   c-1.4,2.2-2.3,4.9-2.3,7.8s0.8,5.6,2.3,7.8v0.8c-1.7-2.4-2.6-5.3-2.6-8.6s1-6.2,2.6-8.6V34.5z M154.2,54.8   c-0.8-0.3-1.5-0.8-2.2-1.2V53c0.7,0.6,1.4,0.9,2.2,1.3V54.8z M154.2,53.9c-0.8-0.4-1.5-0.8-2.2-1.4V32.1c0.7-0.6,1.4-1,2.2-1.4   V53.9z M154.2,30.3c-0.8,0.4-1.5,0.8-2.2,1.3v-0.6c0.7-0.5,1.4-0.9,2.2-1.2V30.3z M159,55.4c-0.4,0-0.8,0.1-1.1,0.1   c-0.4,0-0.8,0-1.1-0.1V55c0.4,0,0.8,0.1,1.1,0.1c0.4,0,0.8,0,1.1-0.1V55.4z M159,54.7c-0.4,0-0.8,0.1-1.1,0.1c-0.4,0-0.8,0-1.1-0.1   V29.9c0.4,0,0.8-0.1,1.1-0.1c0.4,0,0.8,0,1.1,0.1V54.7z M159,29.5c-0.4,0-0.8-0.1-1.1-0.1c-0.4,0-0.8,0-1.1,0.1v-0.5   c0.4,0,0.8-0.1,1.1-0.1c0.4,0,0.8,0,1.1,0.1V29.5z M163.8,53.6c-0.7,0.5-1.4,0.9-2.2,1.2v-0.5c0.8-0.4,1.5-0.8,2.2-1.3V53.6z    M163.8,52.5c-0.7,0.6-1.4,1-2.2,1.4V30.7c0.8,0.4,1.5,0.8,2.2,1.4V52.5z M163.8,31.6c-0.7-0.6-1.4-0.9-2.2-1.3v-0.5   c0.8,0.3,1.5,0.8,2.2,1.2V31.6z M166.4,50.8v-0.8c1.4-2.2,2.3-4.9,2.3-7.8c0-2.9-0.8-5.6-2.3-7.8v-0.8c1.7,2.3,2.6,5.3,2.6,8.6   C169,45.6,168.1,48.6,166.4,50.8z"/>
	<path class="st0" d="M183.3,35.8h4.5v5.8h-1.5l-0.2-1.3c-0.6,0.7-1.4,1.6-3.4,1.6c-2.6,0-5-1.9-5-5.6c0-2.9,1.6-5.7,5.3-5.7   c3.3,0,4.6,2.2,4.7,3.7h-2.3c0-0.4-0.8-1.8-2.4-1.8c-1.6,0-3.1,1.1-3.1,3.9c0,2.9,1.6,3.8,3.1,3.8c0.5,0,2.2-0.2,2.6-2.4h-2.5   L183.3,35.8"/>
	<path class="st0" d="M194.5,39.2c-0.2,0.6-0.8,0.8-1.3,0.8c-1.7,0-1.8-1.3-1.9-2h5.5v-0.4c0-3.7-2.2-4.4-3.8-4.4   c-3.5,0-3.9,3.1-3.9,4c0,3.3,1.7,4.4,4,4.4c1.4,0,3-0.7,3.5-2.5H194.5 M191.3,36.7c0.1-1,0.7-1.7,1.6-1.7c0.7,0,1.5,0.4,1.6,1.7   H191.3z"/>
	<path class="st0" d="M205.4,41.5h-2.1v-4.9c0-0.6,0-1.6-1.4-1.6c-0.9,0-1.7,0.7-1.7,1.9v4.6h-2.1v-8h2v1.1l0,0   c0.3-0.5,0.8-1.4,2.4-1.4c1.6,0,2.8,0.9,2.8,2.6V41.5"/>
	<path class="st0" d="M212,39.2c-0.2,0.6-0.8,0.8-1.3,0.8c-1.7,0-1.8-1.3-1.9-2h5.5v-0.4c0-3.7-2.2-4.4-3.8-4.4   c-3.5,0-3.9,3.1-3.9,4c0,3.3,1.7,4.4,4,4.4c1.4,0,3-0.7,3.5-2.5H212 M208.9,36.7c0.1-1,0.7-1.7,1.6-1.7c0.7,0,1.5,0.4,1.6,1.7   H208.9z"/>
	<path class="st0" d="M215.7,33.5h2v1.4l0,0c0.5-0.8,0.9-1.6,2.2-1.6c0.1,0,0.3,0,0.4,0v2.2c-0.2,0-0.4,0-0.6,0c-1.6,0-2,1-2,1.9   v4.1h-2.1L215.7,33.5"/>
	<path class="st0" d="M228.1,35.7c0-2-2.1-2.4-3.2-2.4c-1.6,0-3.4,0.4-3.6,2.8h2.1c0.1-0.5,0.3-1.1,1.3-1.1c0.6,0,1.4,0,1.4,0.9   c0,0.5-0.4,0.6-0.8,0.7l-1.9,0.3c-1.3,0.2-2.4,1-2.4,2.5c0,1.7,1.2,2.4,2.4,2.4c1.4,0,2.1-0.7,2.6-1.1c0,0.5,0.1,0.6,0.2,0.9h2.3   v-0.3c-0.3-0.1-0.5-0.3-0.5-1.2L228.1,35.7 M226.1,38.7c0,0.9-0.9,1.6-1.9,1.6c-0.4,0-0.9-0.2-0.9-0.9c0-0.8,0.7-1,1.4-1.2   c0.8-0.1,1.2-0.3,1.4-0.5V38.7z"/>
	<rect x="230" y="30.8" class="st0" width="2.1" height="10.8"/>
	<path class="st0" d="M234.3,30.6h2.1v2h-2.1V30.6z M234.3,33.5h2.1v8h-2.1V33.5z"/>
	<path class="st0" d="M240.8,33.5h1.3V35h-1.3v4.3c0,0.5,0,0.7,0.8,0.7c0.1,0,0.3,0,0.5,0v1.6c-0.4,0-0.7,0-1,0h-0.3   c-1.8,0-2.2-0.7-2.2-1.7V35h-1.1v-1.5h1.1v-2.2h2.1L240.8,33.5"/>
	<path class="st0" d="M249.9,35.7c0-2-2.1-2.4-3.2-2.4c-1.6,0-3.4,0.4-3.6,2.8h2.1c0.1-0.5,0.3-1.1,1.3-1.1c0.6,0,1.4,0,1.4,0.9   c0,0.5-0.4,0.6-0.8,0.7l-1.9,0.3c-1.3,0.2-2.4,1-2.4,2.5c0,1.7,1.2,2.4,2.4,2.4c1.4,0,2.1-0.7,2.6-1.1c0,0.5,0.1,0.6,0.2,0.9h2.3   v-0.3c-0.3-0.1-0.5-0.3-0.5-1.2L249.9,35.7 M247.8,38.7c0,0.9-0.9,1.6-1.9,1.6c-0.4,0-0.9-0.2-0.9-0.9c0-0.8,0.7-1,1.4-1.2   c0.8-0.1,1.2-0.3,1.4-0.5V38.7z"/>
	<path class="st0" d="M254.1,33.5h1.3V35h-1.3v4.3c0,0.5,0,0.7,0.8,0.7c0.1,0,0.3,0,0.5,0v1.6c-0.4,0-0.7,0-1,0h-0.3   c-1.8,0-2.2-0.7-2.2-1.7V35h-1.1v-1.5h1.1v-2.2h2.1L254.1,33.5"/>
	<path class="st0" d="M185.4,45.8h-2.1v3.9l0,0c-0.4-0.5-0.9-1.2-2.4-1.2c-1.8,0-3.3,1.3-3.3,4.1c0,2.2,1,4.3,3.4,4.3   c0.8,0,1.8-0.3,2.4-1.2l0,0v1h2.1L185.4,45.8 M179.8,52.7c0-1.2,0.5-2.4,1.8-2.4c1.4,0,1.8,1.3,1.8,2.5s-0.6,2.4-1.9,2.4   C180.1,55.1,179.8,53.6,179.8,52.7z"/>
	<path class="st0" d="M192,54.3c-0.2,0.6-0.8,0.8-1.3,0.8c-1.7,0-1.8-1.3-1.9-2h5.5v-0.4c0-3.7-2.2-4.4-3.8-4.4   c-3.5,0-3.9,3.1-3.9,4c0,3.3,1.7,4.4,4,4.4c1.4,0,3-0.7,3.5-2.5H192 M188.8,51.9c0.1-1,0.7-1.7,1.6-1.7c0.7,0,1.5,0.4,1.6,1.7   H188.8z"/>
	<path class="st0" d="M206.9,49.3c-0.2-0.7-0.6-1.9-2.4-1.9c-1.1,0-2.6,0.8-2.6,3.8c0,2,0.8,3.7,2.6,3.7c1.2,0,2.2-0.8,2.4-2.1h2.3   c-0.5,2.4-2,4-4.7,4c-2.9,0-5-2-5-5.6c0-3.8,2.2-5.7,5-5.7c3.2,0,4.5,2.3,4.7,3.9L206.9,49.3"/>
	<path class="st0" d="M217.2,50.7c0-2-2.1-2.4-3.2-2.4c-1.6,0-3.4,0.4-3.6,2.8h2.1c0.1-0.5,0.3-1.1,1.3-1.1c0.6,0,1.4,0,1.4,0.9   c0,0.5-0.4,0.6-0.8,0.7l-1.9,0.3c-1.3,0.2-2.4,1-2.4,2.5c0,1.7,1.2,2.4,2.4,2.4c1.4,0,2.1-0.7,2.6-1.1c0,0.5,0.1,0.6,0.2,0.9h2.3   v-0.3c-0.3-0.1-0.5-0.3-0.5-1.2L217.2,50.7 M215.2,53.7c0,0.9-0.9,1.6-1.9,1.6c-0.4,0-0.9-0.2-0.9-0.9c0-0.8,0.7-1,1.4-1.2   c0.8-0.1,1.2-0.3,1.4-0.5V53.7z"/>
	<path class="st0" d="M221.5,48.6h1.3v1.5h-1.3v4.3c0,0.5,0,0.7,0.8,0.7c0.1,0,0.3,0,0.5,0v1.6c-0.4,0-0.7,0-1,0h-0.3   c-1.8,0-2.2-0.7-2.2-1.7v-4.9h-1v-1.5h1v-2.2h2.1L221.5,48.6"/>
	<path class="st0" d="M230.6,50.7c0-2-2.1-2.4-3.2-2.4c-1.6,0-3.4,0.4-3.6,2.8h2.1c0.1-0.5,0.3-1.1,1.3-1.1c0.6,0,1.4,0,1.4,0.9   c0,0.5-0.4,0.6-0.8,0.7L226,52c-1.3,0.2-2.4,1-2.4,2.5c0,1.7,1.2,2.4,2.4,2.4c1.4,0,2.1-0.7,2.6-1.1c0,0.5,0.1,0.6,0.2,0.9h2.3   v-0.3c-0.3-0.1-0.5-0.3-0.5-1.2L230.6,50.7 M228.5,53.7c0,0.9-0.9,1.6-1.9,1.6c-0.4,0-0.9-0.2-0.9-0.9c0-0.8,0.7-1,1.4-1.2   c0.8-0.1,1.2-0.3,1.4-0.5V53.7z"/>
	<rect x="232.6" y="45.8" class="st0" width="2.1" height="10.8"/>
	<path class="st0" d="M244,56.7h-2v-1.1l0,0c-0.5,0.8-1.3,1.3-2.4,1.3c-1.6,0-2.7-0.9-2.7-2.9v-5.3h2.1v5c0,1.2,0.8,1.5,1.4,1.5   s1.6-0.4,1.6-1.8v-4.6h2.1L244,56.7"/>
	<path class="st0" d="M253.2,56.7h-2.1v-4.9c0-0.6,0-1.6-1.4-1.6c-0.9,0-1.7,0.7-1.7,1.9v4.6h-2.1v-8h2v1.1l0,0   c0.3-0.5,0.8-1.4,2.4-1.4c1.6,0,2.8,0.9,2.8,2.7V56.7"/>
	<path class="st0" d="M259.2,56.5c-1,3-1.2,3.4-3.1,3.4c-0.3,0-0.7,0-0.9,0v-1.7c0.1,0,0.2,0,0.4,0c0.8,0,1.2-0.1,1.4-1.2l-2.9-8.4   h2.4l1.7,5.9l0,0l1.6-5.9h2.3L259.2,56.5"/>
	<path class="st0" d="M269.2,50.7c0-2-2.1-2.4-3.2-2.4c-1.6,0-3.4,0.4-3.6,2.8h2.1c0.1-0.5,0.3-1.1,1.3-1.1c0.6,0,1.4,0,1.4,0.9   c0,0.5-0.4,0.6-0.8,0.7l-1.9,0.3c-1.3,0.2-2.4,1-2.4,2.5c0,1.7,1.2,2.4,2.4,2.4c1.4,0,2.1-0.7,2.6-1.1c0,0.5,0.1,0.6,0.2,0.9h2.3   v-0.3c-0.3-0.1-0.5-0.3-0.5-1.2L269.2,50.7 M267.2,53.7c0,0.9-0.9,1.6-1.9,1.6c-0.4,0-0.9-0.2-0.9-0.9c0-0.8,0.7-1,1.4-1.2   c0.8-0.1,1.2-0.3,1.4-0.5V53.7z"/>
</g>
<path class="st0" d="M565.7,34.5v14.4c0,0.4-0.1,0.6-0.5,0.6H563c-0.4,0-0.6-0.1-0.6-0.6V34.5h-3.7c-0.4,0-0.5-0.1-0.5-0.5v-1.1  c0-0.4,0.2-0.5,0.5-0.5h10.7c0.3,0,0.5,0,0.5,0.5V34c0,0.4-0.1,0.5-0.5,0.5H565.7z M584.2,41.7c0.4,0,0.5,0,0.5-0.5V40  c0-0.4-0.1-0.5-0.5-0.5h-4.9v-5h5.8c0.4,0,0.6-0.1,0.6-0.5v-1.2c0-0.5-0.2-0.5-0.6-0.5h-8.5c-0.4,0-0.6,0.1-0.6,0.7v16  c0,0.5,0.2,0.6,0.6,0.6h8.5c0.4,0,0.5-0.1,0.6-0.3v-1.4c0-0.5-0.2-0.5-0.6-0.5h-5.8v-5.6L584.2,41.7L584.2,41.7z M601,49  c0.3,0.4,0.3,0.5,0.8,0.5h2.3c0.2,0,0.5,0,0.5-0.3c0-0.1-0.1-0.2-0.1-0.4l-4.8-8.7l4.1-7c0.1-0.1,0.1-0.3,0.1-0.4  c0-0.3-0.3-0.3-0.4-0.3h-1.7c-0.4,0-0.5,0-0.8,0.5l-2.8,4.7l-2.7-4.7c-0.2-0.4-0.3-0.5-0.8-0.5h-2.2c-0.1,0-0.5,0-0.5,0.3  c0,0.1,0,0.2,0.1,0.3l4.2,7.7l-4.7,8.1c-0.2,0.3-0.2,0.4-0.2,0.5c0,0.3,0.3,0.3,0.5,0.3h1.7c0.4,0,0.5-0.1,0.7-0.5l3.4-5.7L601,49z   M533.2,34.2l-3.5,19.9c-0.8,4.7-1.7,6.5-3.2,6.5c-2.7,0-0.6-3.4-2.7-3.4c-1,0-1.5,0.6-1.6,1.4c-0.3,1.4,0.9,3.5,3.8,3.5  c2.9,0,5.4-2.1,6.5-7.9l3.5-19.9h3.9l0.3-1.7h-3.9l0.8-4.9c1-5.5,3.1-7.7,4.7-7.7c2.8,0,1,3.4,3.1,3.4c0.8,0,1.4-0.5,1.5-1.2  c0.2-1.5-1.1-3.6-4.2-3.6c-3.1,0-6.8,3.3-7.9,9.1l-0.8,4.9h-3.2l-0.3,1.7L533.2,34.2L533.2,34.2z M549.8,45.9c-0.2,1.1-0.1,2,0.5,2  c0.6,0,1.6-0.7,2-1.1V48c-1,1-2.3,1.7-3.2,1.7c-1.7,0-2.5-1.5-2.1-3.4l1.9-10.4c0.2-1.2,0.1-2.1-0.5-2.1c-0.6,0-1.6,0.7-2,1.1v-1.2  c0.9-1,2.3-1.7,3.2-1.7c1.7,0,2.5,1.4,2.1,3.4L549.8,45.9 M553.8,24.8c-0.1,1-1.1,1.7-2.1,1.7c-0.9,0-1.6-0.7-1.4-1.7  c0.2-0.9,1.1-1.7,2.1-1.7C553.3,23.1,554,23.8,553.8,24.8 M558.8,62.9C558.8,62.8,558.8,62.8,558.8,62.9l-0.5-0.1  c-0.1,0-0.1,0-0.1,0.1v2.9c0,0.1,0,0.1,0.1,0.1h0.4c0.1,0,0.1,0,0.1-0.1V62.9z M561.2,62.9c0-0.1-0.1-0.1-0.1-0.1h-0.3  c-0.1,0-0.1,0-0.1,0.1v2.9c0,0.1,0,0.1,0.1,0.1h0.3c0.1,0,0.1,0,0.1-0.1v-2.1l1.5,2.1c0,0.1,0.1,0.1,0.1,0.1h0.2  c0.1,0,0.1,0,0.1-0.1v-2.9c0-0.1,0-0.1-0.1-0.1h-0.3c-0.1,0-0.1,0-0.1,0.1v1.9L561.2,62.9z M565.5,62.9c0-0.1-0.1-0.1-0.1-0.1h-0.3  c-0.1,0-0.1,0-0.1,0.1v2.9c0,0.1,0,0.1,0.1,0.1h0.3c0.1,0,0.1,0,0.1-0.1v-2.1l1.5,2.1c0,0.1,0.1,0.1,0.1,0.1h0.2  c0.1,0,0.1,0,0.1-0.1v-2.9c0-0.1,0-0.1-0.1-0.1H567c-0.1,0-0.1,0-0.1,0.1v1.9L565.5,62.9z M571.8,64.3c0,1-0.6,1.7-1.4,1.7  c-0.7,0-1.4-0.6-1.4-1.6c0-0.9,0.5-1.6,1.4-1.6C571.3,62.7,571.8,63.4,571.8,64.3 M571.2,64.3c0-0.2,0-0.6-0.2-0.8  c-0.2-0.3-0.5-0.3-0.6-0.3c-0.1,0-0.2,0-0.3,0.1c-0.4,0.3-0.4,0.9-0.4,1.1s0,0.3,0,0.4c0.1,0.7,0.6,0.8,0.7,0.8  c0.2,0,0.4-0.1,0.6-0.4S571.2,64.6,571.2,64.3 M573.7,62.9c0-0.1,0-0.1-0.1-0.1h-0.4c0,0-0.1,0-0.1,0.1c0,0,0,0,0,0.1l1,2.9  c0,0.1,0,0.1,0.1,0.1h0.2c0.1,0,0.1,0,0.1-0.1l1-2.9c0-0.1,0-0.1,0-0.1s0-0.1-0.1-0.1h-0.3c-0.1,0-0.1,0-0.1,0.1l-0.7,2L573.7,62.9z   M578.1,64.9h-0.9l-0.3,0.9c0,0.1,0,0.1-0.1,0.1h-0.3c0,0-0.1,0-0.1-0.1v-0.1l1.1-2.9c0-0.1,0-0.1,0.1-0.1h0.3c0.1,0,0.1,0,0.1,0.1  l1.1,2.9c0,0,0,0,0,0.1s0,0.1-0.1,0.1h-0.4c-0.1,0-0.1,0-0.1-0.1L578.1,64.9z M577.9,64.6l-0.3-1l-0.3,1H577.9z M582.2,63.5  c0.1,0.1,0.1,0.1,0.2,0.1c0.1,0,0.3-0.1,0.3-0.3c0-0.3-0.4-0.6-1-0.6c-0.9,0-1.4,0.7-1.4,1.6c0,0.8,0.4,1.6,1.4,1.6  c0.6,0,1-0.4,1-0.6c0-0.1-0.1-0.1-0.1-0.1c-0.1,0-0.1,0-0.2,0.1c-0.1,0-0.3,0.2-0.5,0.2c-0.5,0-0.9-0.5-0.9-1.3  c0-0.7,0.3-1.1,0.7-1.1C581.9,63.1,582.1,63.3,582.2,63.5 M584.9,62.9C584.9,62.8,584.8,62.8,584.9,62.9l-0.5-0.1  c-0.1,0-0.1,0-0.1,0.1v2.9c0,0.1,0,0.1,0.1,0.1h0.4c0.1,0,0.1,0,0.1-0.1V62.9z M589.2,64.3c0,1-0.6,1.7-1.4,1.7  c-0.7,0-1.4-0.6-1.4-1.6c0-0.9,0.5-1.6,1.4-1.6C588.7,62.7,589.2,63.4,589.2,64.3 M588.6,64.3c0-0.2,0-0.6-0.2-0.8  c-0.2-0.3-0.5-0.3-0.6-0.3c-0.1,0-0.2,0-0.3,0.1c-0.4,0.3-0.4,0.9-0.4,1.1s0,0.3,0,0.4c0.1,0.7,0.6,0.8,0.7,0.8  c0.2,0,0.4-0.1,0.6-0.4C588.6,64.9,588.6,64.6,588.6,64.3 M588,62.5C587.9,62.5,587.9,62.6,588,62.5c-0.2,0-0.2,0-0.2-0.1v-0.1  l0.4-0.4l0.1-0.1c0.1,0,0.2,0.1,0.2,0.2c0,0.1-0.1,0.2-0.1,0.2L588,62.5z M595,63.2C595.1,63.2,595.1,63.2,595,63.2l0.1-0.3  c0-0.1,0-0.1-0.1-0.1h-1.9c-0.1,0-0.1,0-0.1,0.1v0.2c0,0.1,0,0.1,0.1,0.1h0.7v2.6c0,0.1,0,0.1,0.1,0.1h0.4c0.1,0,0.1,0,0.1-0.1v-2.6  C594.4,63.2,595,63.2,595,63.2z M597.2,64.5v1h1c0.1,0,0.1,0,0.1,0.1v0.3c0,0,0,0.1-0.1,0.1h-1.5c-0.1,0-0.1,0-0.1-0.1V63  c0-0.1,0-0.1,0.1-0.1h1.5c0.1,0,0.1,0,0.1,0.1v0.2c0,0.1,0,0.1-0.1,0.1h-1v0.9h0.9c0.1,0,0.1,0,0.1,0.1v0.2c0,0.1,0,0.1-0.1,0.1  L597.2,64.5L597.2,64.5z M597.5,62.3L597.5,62.3c0,0.2-0.1,0.2-0.1,0.2h-0.1l-0.4-0.3c-0.1,0-0.1-0.1-0.1-0.2c0-0.1,0.1-0.2,0.2-0.2  c0.1,0,0.1,0,0.1,0.1L597.5,62.3z M601.3,65.8c0,0.1,0.1,0.1,0.1,0.1h0.4c0,0,0.1,0,0.1-0.1c0,0,0,0,0-0.1l-0.9-1.6l0.7-1.3  c0,0,0,0,0-0.1s-0.1-0.1-0.1-0.1h-0.3c-0.1,0-0.1,0-0.1,0.1l-0.5,0.9l-0.5-0.9c0-0.1-0.1-0.1-0.2-0.1h-0.4c0,0-0.1,0-0.1,0.1  c0,0,0,0,0,0.1l0.7,1.4l-0.8,1.4v0.1c0,0.1,0.1,0.1,0.1,0.1h0.3c0.1,0,0.1,0,0.1-0.1l0.6-1L601.3,65.8z M605.1,63.2  C605.2,63.2,605.2,63.2,605.1,63.2l0.1-0.3c0-0.1,0-0.1-0.1-0.1h-1.9c-0.1,0-0.1,0-0.1,0.1v0.2c0,0.1,0,0.1,0.1,0.1h0.7v2.6  c0,0.1,0,0.1,0.1,0.1h0.4c0.1,0,0.1,0,0.1-0.1v-2.6C604.5,63.2,605.1,63.2,605.1,63.2z M607.3,62.9  C607.3,62.8,607.3,62.8,607.3,62.9l-0.5-0.1c-0.1,0-0.1,0-0.1,0.1v2.9c0,0.1,0,0.1,0.1,0.1h0.4c0.1,0,0.1,0,0.1-0.1V62.9z   M609.7,62.9C609.7,62.8,609.7,62.8,609.7,62.9l-0.5-0.1c-0.1,0-0.1,0-0.1,0.1v2.9c0,0.1,0,0.1,0.1,0.1h1.5c0.1,0,0.1,0,0.1-0.1  v-0.2c0-0.1,0-0.1-0.1-0.1h-1V62.9z M558.8,62.9C558.8,62.8,558.8,62.8,558.8,62.9l-0.5-0.1c-0.1,0-0.1,0-0.1,0.1v2.9  c0,0.1,0,0.1,0.1,0.1h0.4c0.1,0,0.1,0,0.1-0.1V62.9 M561.2,62.9c0-0.1-0.1-0.1-0.1-0.1h-0.3c-0.1,0-0.1,0-0.1,0.1v2.9  c0,0.1,0,0.1,0.1,0.1h0.3c0.1,0,0.1,0,0.1-0.1v-2.1l1.5,2.1c0,0.1,0.1,0.1,0.1,0.1h0.2c0.1,0,0.1,0,0.1-0.1v-2.9  c0-0.1,0-0.1-0.1-0.1h-0.3c-0.1,0-0.1,0-0.1,0.1v1.9L561.2,62.9 M565.5,62.9c0-0.1-0.1-0.1-0.1-0.1h-0.3c-0.1,0-0.1,0-0.1,0.1v2.9  c0,0.1,0,0.1,0.1,0.1h0.3c0.1,0,0.1,0,0.1-0.1v-2.1l1.5,2.1c0,0.1,0.1,0.1,0.1,0.1h0.2c0.1,0,0.1,0,0.1-0.1v-2.9  c0-0.1,0-0.1-0.1-0.1H567c-0.1,0-0.1,0-0.1,0.1v1.9L565.5,62.9 M571.8,64.3c0-0.8-0.5-1.5-1.4-1.5c-0.9,0-1.4,0.7-1.4,1.6  c0,1.1,0.6,1.6,1.4,1.6C571.3,66,571.9,65.2,571.8,64.3 M571.2,64.3c0,0.3,0,0.6-0.2,0.9s-0.4,0.4-0.6,0.4s-0.6-0.1-0.7-0.8  c0-0.1,0-0.3,0-0.4c0-0.2,0-0.9,0.4-1.1c0.1-0.1,0.2-0.1,0.3-0.1s0.4,0,0.6,0.3C571.2,63.7,571.2,64,571.2,64.3 M573.7,62.9  c0-0.1,0-0.1-0.1-0.1h-0.4c0,0-0.1,0-0.1,0.1V63l1,2.9c0,0.1,0,0.1,0.1,0.1h0.2c0.1,0,0.1,0,0.1-0.1l1-2.9v-0.1c0,0,0-0.1-0.1-0.1  h-0.3c-0.1,0-0.1,0-0.1,0.1l-0.7,2L573.7,62.9 M578.4,65.8c0,0.1,0,0.1,0.1,0.1h0.4c0,0,0.1,0,0.1-0.1v-0.1l-1.1-2.9  c0-0.1,0-0.1-0.1-0.1h-0.3c-0.1,0-0.1,0-0.1,0.1l-1.1,2.9v0.1c0,0.1,0.1,0.1,0.1,0.1h0.3c0.1,0,0.1,0,0.1-0.1l0.3-0.9h0.9  L578.4,65.8 M577.6,63.6l0.3,1h-0.7L577.6,63.6z M582.2,63.5c0.1,0.1,0.1,0.1,0.2,0.1c0.1,0,0.3-0.1,0.3-0.3c0-0.3-0.4-0.6-1-0.6  c-0.9,0-1.4,0.7-1.4,1.6c0,0.8,0.4,1.6,1.4,1.6c0.6,0,1-0.4,1-0.6c0-0.1-0.1-0.1-0.1-0.1c-0.1,0-0.1,0-0.2,0.1  c-0.1,0-0.3,0.2-0.5,0.2c-0.5,0-0.9-0.5-0.9-1.3c0-0.7,0.3-1.1,0.7-1.1C581.9,63.1,582.1,63.3,582.2,63.5 M584.9,62.9  C584.9,62.8,584.8,62.8,584.9,62.9l-0.5-0.1c-0.1,0-0.1,0-0.1,0.1v2.9c0,0.1,0,0.1,0.1,0.1h0.4c0.1,0,0.1,0,0.1-0.1V62.9   M589.2,64.3c0-0.8-0.5-1.5-1.4-1.5c-0.9,0-1.4,0.7-1.4,1.6c0,1.1,0.6,1.6,1.4,1.6C588.7,66,589.3,65.2,589.2,64.3 M588.6,64.3  c0,0.3,0,0.6-0.2,0.9s-0.4,0.4-0.6,0.4s-0.6-0.1-0.7-0.8c0-0.1,0-0.3,0-0.4c0-0.2,0-0.9,0.4-1.1c0.1-0.1,0.2-0.1,0.3-0.1  c0.1,0,0.4,0,0.6,0.3C588.6,63.7,588.6,64,588.6,64.3 M588.4,62.2c0.1,0,0.1-0.1,0.1-0.2c0-0.1-0.1-0.2-0.2-0.2  c-0.1,0-0.1,0-0.1,0.1l-0.4,0.4v0.1c0,0.1,0.1,0.1,0.1,0.1h0.1L588.4,62.2 M595,63.2C595.1,63.2,595.1,63.2,595,63.2l0.1-0.3  c0-0.1,0-0.1-0.1-0.1h-1.9c-0.1,0-0.1,0-0.1,0.1v0.2c0,0.1,0,0.1,0.1,0.1h0.7v2.6c0,0.1,0,0.1,0.1,0.1h0.4c0.1,0,0.1,0,0.1-0.1v-2.6  L595,63.2 M598,64.5C598.1,64.5,598.1,64.5,598,64.5l0.1-0.3c0-0.1,0-0.1-0.1-0.1h-0.9v-0.9h1c0.1,0,0.1,0,0.1-0.1v-0.2  c0-0.1,0-0.1-0.1-0.1h-1.5c-0.1,0-0.1,0-0.1,0.1v2.9c0,0.1,0,0.1,0.1,0.1h1.5c0.1,0,0.1,0,0.1-0.1v-0.3c0-0.1,0-0.1-0.1-0.1h-1v-1  h0.9 M597.1,61.9L597.1,61.9c-0.2-0.1-0.3,0-0.3,0.1c0,0.1,0.1,0.2,0.1,0.2l0.4,0.3h0.1c0.1,0,0.1-0.1,0.1-0.1v-0.1L597.1,61.9   M601.3,65.8c0,0.1,0.1,0.1,0.1,0.1h0.4c0,0,0.1,0,0.1-0.1c0,0,0,0,0-0.1l-0.9-1.6l0.7-1.3c0,0,0,0,0-0.1s-0.1-0.1-0.1-0.1h-0.3  c-0.1,0-0.1,0-0.1,0.1l-0.5,0.9l-0.5-0.9c0-0.1-0.1-0.1-0.1-0.1h-0.4c0,0-0.1,0-0.1,0.1v0.1l0.7,1.4l-0.8,1.4v0.1  c0,0.1,0.1,0.1,0.1,0.1h0.3c0.1,0,0.1,0,0.1-0.1l0.6-1L601.3,65.8 M605.1,63.2C605.2,63.2,605.2,63.2,605.1,63.2l0.1-0.3  c0-0.1,0-0.1-0.1-0.1h-1.9c-0.1,0-0.1,0-0.1,0.1v0.2c0,0.1,0,0.1,0.1,0.1h0.7v2.6c0,0.1,0,0.1,0.1,0.1h0.4c0.1,0,0.1,0,0.1-0.1v-2.6  L605.1,63.2 M607.3,62.9C607.3,62.8,607.3,62.8,607.3,62.9l-0.5-0.1c-0.1,0-0.1,0-0.1,0.1v2.9c0,0.1,0,0.1,0.1,0.1h0.4  c0.1,0,0.1,0,0.1-0.1V62.9 M609.7,62.9C609.7,62.8,609.7,62.8,609.7,62.9l-0.5-0.1c-0.1,0-0.1,0-0.1,0.1v2.9c0,0.1,0,0.1,0.1,0.1  h1.5c0.1,0,0.1,0,0.1-0.1v-0.2c0-0.1,0-0.1-0.1-0.1h-1V62.9 M559.6,57.9C559.7,57.9,559.7,57.9,559.6,57.9c0.1-0.1,0.1-0.3,0.1-0.3  c0-0.1,0-0.1-0.1-0.1h-0.8v-0.9h1c0.1,0,0.1,0,0.1-0.1v-0.2c0-0.1,0-0.1-0.1-0.1h-1.5c-0.1,0-0.1,0-0.1,0.1v2.9c0,0.1,0,0.1,0.1,0.1  h0.4c0.1,0,0.1,0,0.1-0.1v-1.3C558.8,57.9,559.6,57.9,559.6,57.9z M563.3,56.3C563.3,56.2,563.2,56.2,563.3,56.3l-0.4-0.1  c-0.1,0-0.1,0-0.1,0.1v2c0,0.1,0,0.6-0.5,0.6s-0.5-0.4-0.5-0.6v-2c0-0.1,0-0.1-0.1-0.1h-0.4c-0.1,0-0.1,0-0.1,0.1v2.1  c0,0.2,0,0.4,0.1,0.5c0.2,0.4,0.6,0.5,1,0.5c0.7,0,0.9-0.4,1-0.5c0.1-0.2,0.1-0.4,0.1-0.5v-2.1H563.3z M565.3,56.3  C565.3,56.2,565.2,56.2,565.3,56.3l-0.4-0.1c-0.1,0-0.1,0-0.1,0.1v2.9c0,0.1,0,0.1,0.1,0.1h0.3c0.1,0,0.1,0,0.1-0.1v-2.1l1.5,2.1  c0,0.1,0.1,0.1,0.1,0.1h0.2c0.1,0,0.1,0,0.1-0.1v-2.9c0-0.1,0-0.1-0.1-0.1h-0.3c-0.1,0-0.1,0-0.1,0.1v1.9L565.3,56.3z M568.8,56.4  c0-0.1,0-0.1,0.1-0.1c0.1,0,0.5-0.1,0.7-0.1c0.3,0,0.8,0,1.2,0.4c0.2,0.1,0.5,0.5,0.5,1.2c0,0.6-0.3,1-0.4,1.1  c-0.4,0.4-0.9,0.5-1.4,0.5c-0.2,0-0.5,0-0.6-0.1c-0.1,0-0.1,0-0.1-0.1L568.8,56.4L568.8,56.4z M569.4,59c0.1,0,0.1,0,0.1,0  c0.4,0,0.7-0.1,0.9-0.4c0.1-0.2,0.2-0.4,0.2-0.8c0-0.5-0.2-0.7-0.2-0.8c-0.2-0.3-0.5-0.4-0.9-0.4c-0.1,0-0.1,0-0.2,0L569.4,59  L569.4,59z M573.9,58.4H573l-0.3,0.9c0,0.1,0,0.1-0.1,0.1h-0.3c0,0-0.1,0-0.1-0.1v-0.1l1.1-2.9c0-0.1,0-0.1,0.1-0.1h0.3  c0.1,0,0.1,0,0.1,0.1l1.1,2.9c0,0,0,0,0,0.1s0,0.1-0.1,0.1h-0.4c-0.1,0-0.1,0-0.1-0.1L573.9,58.4z M573.8,58l-0.3-1l-0.3,1H573.8z   M577.7,56.9c0.1,0.1,0.1,0.1,0.2,0.1c0.1,0,0.3-0.1,0.3-0.3c0-0.3-0.4-0.6-1-0.6c-0.9,0-1.4,0.7-1.4,1.6c0,0.8,0.4,1.6,1.4,1.6  c0.6,0,1-0.4,1-0.6c0-0.1-0.1-0.1-0.1-0.1c-0.1,0-0.1,0-0.2,0.1c-0.1,0-0.3,0.2-0.5,0.2c-0.5,0-0.9-0.5-0.9-1.3  c0-0.7,0.3-1.1,0.7-1.1C577.5,56.5,577.6,56.7,577.7,56.9 M580.1,56.3C580.1,56.3,580.1,56.2,580.1,56.3l-0.5-0.1  c-0.1,0-0.1,0-0.1,0.1v2.9c0,0.1,0,0.1,0.1,0.1h0.4c0.1,0,0.1,0,0.1-0.1V56.3z M584.2,57.7c0,1-0.6,1.7-1.4,1.7  c-0.7,0-1.4-0.6-1.4-1.6c0-0.9,0.5-1.6,1.4-1.6C583.7,56.2,584.1,56.9,584.2,57.7 M583.6,57.7c0-0.2,0-0.6-0.2-0.8  c-0.2-0.3-0.5-0.3-0.6-0.3c-0.1,0-0.2,0-0.3,0.1c-0.4,0.3-0.4,0.9-0.4,1.1c0,0.2,0,0.3,0,0.4c0.1,0.7,0.6,0.8,0.7,0.8  c0.2,0,0.4-0.1,0.6-0.4C583.5,58.3,583.6,58,583.6,57.7 M582.9,56C582.9,56,582.8,56,582.9,56c-0.2,0-0.2,0-0.2-0.1v-0.1l0.4-0.4  l0.1-0.1c0.1,0,0.2,0.1,0.2,0.2c0,0.1-0.1,0.2-0.1,0.2L582.9,56z M587.5,56.4C587.5,56.3,587.5,56.3,587.5,56.4  c0.2-0.1,0.6-0.2,0.9-0.2s1.2,0,1.2,0.9c0,0.7-0.6,1-1.2,1c-0.1,0-0.1,0-0.3,0v1.2c0,0.1,0,0.1-0.1,0.1h-0.4c-0.1,0-0.1,0-0.1-0.1  V56.4z M588.1,57.7c0.1,0,0.1,0,0.2,0c0.3,0,0.7-0.1,0.7-0.6c0-0.6-0.5-0.6-0.7-0.6c-0.1,0-0.2,0-0.2,0V57.7z M592.3,57.9  C592.4,57.9,592.4,57.9,592.3,57.9l0.1-0.3c0-0.1,0-0.1-0.1-0.1h-0.9v-0.9h1c0.1,0,0.1,0,0.1-0.1v-0.2c0-0.1,0-0.1-0.1-0.1h-1.5  c-0.1,0-0.1,0-0.1,0.1v2.9c0,0.1,0,0.1,0.1,0.1h1.5c0.1,0,0.1,0,0.1-0.1V59c0-0.1,0-0.1-0.1-0.1h-1v-1H592.3z M594,56.4  C594,56.3,594,56.3,594,56.4c0.2-0.1,0.5-0.2,0.8-0.2s0.6,0,0.9,0.2c0.2,0.2,0.3,0.4,0.3,0.6c0,0.5-0.4,0.7-0.7,0.8l0.8,1.3v0.1  c0,0.1-0.1,0.1-0.1,0.1h-0.4c-0.1,0-0.1,0-0.1-0.1l-0.7-1.1c0,0-0.1-0.1-0.2-0.1c-0.1,0-0.1,0.1-0.1,0.1v1.1c0,0.1,0,0.1-0.1,0.1  h-0.3c-0.1,0-0.1,0-0.1-0.1L594,56.4L594,56.4z M594.6,57.7c0.2,0,0.2,0,0.3,0c0.3,0,0.5-0.2,0.5-0.6c0-0.6-0.5-0.6-0.6-0.6  c-0.1,0-0.2,0-0.2,0V57.7L594.6,57.7z M600.8,58.4h-0.9l-0.3,0.9c0,0.1,0,0.1-0.1,0.1h-0.3c0,0-0.1,0-0.1-0.1v-0.1l1.1-2.9  c0-0.1,0-0.1,0.1-0.1h0.3c0.1,0,0.1,0,0.1,0.1l1.1,2.9c0,0,0,0,0,0.1s0,0.1-0.1,0.1h-0.4c-0.1,0-0.1,0-0.1-0.1L600.8,58.4z   M600.7,58l-0.3-1l-0.3,1H600.7z M605.6,56.3C605.6,56.2,605.6,56.2,605.6,56.3l-0.5-0.1c-0.1,0-0.1,0-0.1,0.1v2.9  c0,0.1,0,0.1,0.1,0.1h1.5c0.1,0,0.1,0,0.1-0.1V59c0-0.1,0-0.1-0.1-0.1h-1V56.3z M609.3,58.4h-0.9l-0.3,0.9c0,0.1,0,0.1-0.1,0.1h-0.3  c0,0-0.1,0-0.1-0.1v-0.1l1.1-2.9c0-0.1,0-0.1,0.1-0.1h0.3c0.1,0,0.1,0,0.1,0.1l1.1,2.9c0,0,0,0,0,0.1s0,0.1-0.1,0.1h-0.4  c-0.1,0-0.1,0-0.1-0.1L609.3,58.4z M609.2,58l-0.3-1l-0.3,1H609.2z"/>
<g id="bVM338_1_">
	<g>
		<path class="st0" d="M467.5,13.1c1,0.3,2,0.5,2.9,0.8c1.7,0.7,3.5,1.7,4.6,3.2c2.4,3.4,2.4,8.5-1.7,11.8c-0.6,0.5-1.1,0.8-1.7,1.3    c0.7,0.5,1.6,0.8,2.3,1.3c2.3,1.5,4.1,3.3,5,6.1c1.8,6.4-0.7,11.7-6.8,14.5c-2.7,1.3-5.6,1.5-8.6,1.1c-2.5-0.3-4.8-0.9-6.9-2.4    c-3.4-2.3-4.8-5.5-4.3-9.7c0.3-2.9,1.7-5.1,4.1-6.7c1.2-0.7,2.5-1.5,3.7-2.2c-0.4-0.3-0.7-0.6-1.1-0.9c-1.6-1.3-2.9-2.8-3.6-4.8    c-1.5-4.8,0.8-11.4,7.3-13.1c0.6-0.2,1.3-0.3,1.9-0.5C465.6,13.1,466.6,13.1,467.5,13.1z M466.5,51.4c0.6-0.1,1.6-0.3,2.6-0.5    c3-0.6,6.3-3.9,5.7-7.8c-0.4-2.4-1.7-4.1-3.7-5.1c-2.8-1.4-5.6-2.7-8.5-4c-1.7-0.7-1.7-0.7-2.9,0.6c-2.3,2.3-3.1,5.2-2.9,8.4    c0.2,1.7,0.5,3.2,1.5,4.5C460.2,50.2,463,51.3,466.5,51.4z M473.7,22.3c-0.1-0.6-0.1-1.1-0.2-1.7c-0.6-2.7-1.9-4.5-4.6-5.3    c-1.6-0.5-3.2-0.6-4.9-0.3c-3.1,0.6-4.9,2.7-4.9,5.8c0,2,0.9,3.6,2.5,4.8c2.1,1.7,4.6,2.9,7.3,3.7c1.6,0.5,1.2,0.6,2.2-0.6    C472.6,26.7,473.7,24.7,473.7,22.3z M475.7,46.9C475.7,46.9,475.8,46.9,475.7,46.9c0.3-0.2,0.6-0.5,0.6-0.8    c0.3-0.7,0.5-1.4,0.6-2.1c0.6-3.9-0.3-7-3.9-9.4c-1.8-1.2-3.8-2-5.7-2.9c-2.2-0.9-4.3-1.7-6.3-3.3c-2.8-2.2-4.1-5-3.7-8.6    c0.1-0.4,0.2-0.7,0.2-1.1c-0.2,0.1-0.3,0.3-0.4,0.5c-1,2.1-1,4.3-0.5,6.4c0.7,2.7,2.5,4.6,4.8,5.9c1.8,1,3.9,1.8,5.8,2.8    c1.9,0.8,3.9,1.7,5.5,2.9c2.4,1.8,4.4,5.4,2.8,9.2C475.7,46.6,475.7,46.7,475.7,46.9z M456.3,36.5c-1.9,1.4-3,5.1-2.5,7.7    c0.6,2.8,2.3,4.8,4.8,6.1c-2-1.7-3.6-3.6-3.9-6.4C454.4,41.4,455.1,38.9,456.3,36.5z"/>
		<path class="st0" d="M431.6,57.1c0.6,0,1.4,0.1,2,0.1c0.3,0,0.6,0,0.7,0c1.4,0.1,2.1,1.4,1.4,2.6c-0.2,0.3-0.4,0.6-0.6,0.8    c0.2,0.1,0.3,0.2,0.4,0.3c1,0.6,1.5,1.6,1.3,2.6c-0.2,0.9-1,1.7-2.1,1.7c-0.2,0-0.3,0-0.5,0c-0.8,0-1.6,0-2.5-0.1    c0.6-0.2,0.6-0.6,0.6-1c0-2,0-4.1,0-6.2c0-0.6-0.4-0.7-0.9-0.7C431.6,57.2,431.6,57.2,431.6,57.1z M433.3,61c0,1.1,0,2.2,0,3.3    c0,0.1,0.1,0.3,0.2,0.4c0.6,0.6,2.3,0.2,2.4-0.7C436.2,62.3,435.3,60.7,433.3,61z M433.3,57.5c0,1,0,2,0,3c0.6,0,1.3,0.3,1.7-0.4    c0.4-0.6,0.4-1.7-0.1-2.2C434.5,57.4,434,57.3,433.3,57.5z"/>
		<path class="st0" d="M499.7,65.3c-0.6,0-1.4,0-2,0c0-0.3,0-0.5-0.1-0.6c-0.3-0.7-0.5-1.4-0.7-2c-0.1-0.3-0.3-0.5-0.6-0.4h-0.1    c-0.6,0-1.2,0.1-1.8,0.1c-0.3,0.8-0.6,1.7-0.7,2.5c0,0.1,0.3,0.4,0.4,0.6c-0.6,0-1.3,0-1.9,0c0.7-0.1,0.9-0.6,1.2-1.2    c0.7-2.1,1.5-4.1,2.2-6.3c0.1-0.3,0.2-0.5,0.4-0.8c0.2,0.5,0.4,0.8,0.5,1.2c0.7,1.9,1.5,3.9,2.2,5.9c0.3,0.6,0.6,1.2,1.4,1.1    C499.7,65.2,499.7,65.2,499.7,65.3z M496.6,61.7c-0.4-1-0.6-2-1-2.9h-0.1c-0.3,1-0.6,1.9-0.9,2.9    C495.3,61.7,495.8,61.7,496.6,61.7z"/>
		<path class="st0" d="M485,74.9c-1.8-0.7-2.6-2.3-1.9-4c0.6-1.4,1.9-2,3.4-1.5c1.3,0.5,2,1.7,1.7,3.2c-0.3,1.2-1,1.9-2.1,2.3    C485.7,74.9,485.4,74.9,485,74.9z M487.7,72.1c-0.2-0.5-0.3-1.1-0.6-1.7c-0.4-0.7-1.1-1-1.9-0.9c-0.8,0.1-1.3,0.6-1.6,1.4    c-0.3,1-0.2,2,0.5,2.9c0.9,1.2,2.7,1.1,3.3-0.3C487.6,73.1,487.6,72.6,487.7,72.1z"/>
		<path class="st0" d="M452.2,74.9c-0.6-0.1-0.6-0.6-0.6-1.1c0.2,0.3,0.3,0.5,0.5,0.6c0.4,0.3,1,0.3,1.4-0.1    c0.4-0.4,0.5-0.9,0.1-1.4c-0.3-0.4-0.6-0.6-1-0.9c-0.3-0.3-0.6-0.6-0.7-0.9c-0.3-0.6-0.1-1.2,0.4-1.5c0.6-0.5,1.2-0.4,1.7-0.2    c0.2,0.1,0.2,0.6,0.3,0.9c-0.3-0.3-0.4-0.6-0.6-0.6c-0.5-0.2-0.9-0.2-1.2,0.2s-0.2,0.8,0.1,1.2c0.4,0.4,0.8,0.7,1.2,1.1    c0.6,0.5,0.6,1.1,0.5,1.7c-0.2,0.6-0.6,0.8-1,1C452.9,74.9,452.6,74.9,452.2,74.9z"/>
		<path class="st0" d="M451.5,31.3c-0.1,4.1-1.1,7.4-3.8,10.1c-1.7,1.7-3.6,2.7-5.9,2.7c-3,0-5.3-1.4-7.1-3.8    c-1.7-2.3-2.6-4.9-2.8-7.7c-0.3-3.6,0.6-6.9,2.8-9.8c1.4-1.7,3-3,5.2-3.5c2.9-0.6,5.3,0.2,7.5,2.2s3.2,4.5,3.8,7.4    C451.4,29.8,451.5,30.7,451.5,31.3z M447.3,30.9c-0.1-0.9-0.3-2.6-0.6-4.2c-0.4-1.8-1-3.5-2.1-5c-1.5-1.9-3.7-2-5.3-0.3    c-0.7,0.7-1.3,1.7-1.7,2.7c-1.6,4.4-1.7,8.8-0.6,13.4c0.5,1.7,1.2,3.4,2.4,4.7c1.4,1.5,3.4,1.6,4.8,0c0.6-0.6,0.9-1.2,1.3-1.8    C446.9,37.4,447.2,34.6,447.3,30.9z M436.1,22.7c-2,2.4-3.9,6-3.2,10.6c0.4,2.7,2.3,6.7,3.4,7.3C433.8,34.7,433.5,28.6,436.1,22.7    z M446.5,22.6c2.4,6.1,2.4,12.2,0,18.1c0,0,0.2-0.1,0.3-0.2c0.9-0.9,1.5-1.9,1.8-3.1c0.8-2.4,1-4.9,0.7-7.4    c-0.2-1.8-0.6-3.6-1.3-5.2C447.6,23.9,447.1,23.2,446.5,22.6z"/>
		<path class="st0" d="M499.6,32.1c0,2.6-1,6.2-3.8,9c-2.6,2.7-6.5,3.4-9.6,1.8c-2.3-1.2-4-3.2-4.9-5.6c-2.2-5.4-1.7-10.6,1.9-15.3    c1.7-2.2,4.1-3.3,6.9-3.2c2.6,0.1,4.6,1.4,6.2,3.3C498.4,24.7,499.4,27.5,499.6,32.1z M495.4,31.6c0-1.9-0.2-3.9-0.7-5.7    c-0.5-1.7-1-3.3-2.2-4.7c-1.5-1.7-3.6-1.7-5.1-0.1c-0.6,0.6-1.1,1.5-1.5,2.4c-1.9,4.7-2.1,9.6-0.6,14.5c0.5,1.6,1.2,3,2.4,4.2    c1.4,1.2,3.1,1.2,4.4-0.1c0.6-0.6,1.1-1.3,1.6-2C494.9,37.3,495.3,34.4,495.4,31.6z M484.2,22.5c-2.3,2.8-3.8,6.2-3.2,10.4    c0.4,2.9,1.5,5.4,3.4,7.6C481.9,34.4,481.7,28.4,484.2,22.5z M494.6,22.4c2.4,6.1,2.3,12.1,0,18.1c0.5-0.6,0.9-1.1,1.3-1.7    c0.9-1.7,1.4-3.5,1.6-5.4c0.3-3.1,0-6.2-1.4-9C495.7,23.5,495.2,22.9,494.6,22.4z"/>
		<path class="st0" d="M484.4,58.7c0,0.6,0,1.2,0,1.7c0,1.2,0.1,2.4,0.1,3.6c0,0.7,0.2,0.9,0.8,1.1c-0.7,0-1.4,0-2.1,0    c0.7-0.1,0.6-0.6,0.6-1.1c0-2.1,0-4.2,0.1-6.4c0-0.3,0-0.5,0.1-0.8c2,2.3,4.1,4.5,6.1,6.9c0-0.6,0-1.1,0-1.6    c0-1.3-0.1-2.6-0.1-3.9c0-0.8-0.1-0.9-1-1.2c0.8,0,1.6,0,2.2,0c-0.6,0.1-0.6,0.6-0.6,1.1c0,2.1,0,4.2,0,6.4c0,0.2,0,0.4,0,0.6    c-0.1,0-0.1,0.1-0.2,0.1c-1-1.1-2-2.1-3-3.2C486.5,61,485.5,59.9,484.4,58.7z"/>
		<path class="st0" d="M481.9,61c0,2.3-1.3,4-3.5,4.3c-2.3,0.4-4.3-1.2-4.6-3.6c-0.2-1.9,0.7-3.6,2.2-4.4    C478.1,56.3,481.9,57.2,481.9,61z M480.9,61.4c0-0.9-0.2-1.7-0.6-2.5c-0.6-1-1.6-1.6-2.8-1.5c-1.1,0.1-1.9,0.6-2.3,1.6    c-0.6,1.7-0.6,3.2,0.4,4.7c0.6,0.9,1.6,1.4,2.8,1.3c1.1-0.1,1.8-0.7,2.2-1.7C480.7,62.7,480.8,62,480.9,61.4z"/>
		<path class="st0" d="M445.9,57.2c1.1,0,2.1-0.1,3.2,0c1.5,0.1,2.2,1.4,1.7,2.8c-0.2,0.6-0.6,1.1-1,1.7c0.7,0.9,1.5,1.9,2.4,2.9    c0.3,0.4,0.8,0.5,1.2,0.6c-1,0.3-1.8,0-2.6-0.9c-0.5-0.6-0.9-1.2-1.3-1.8c-0.3-0.5-0.6-0.7-1.3-0.6c-0.2,0-0.4,0-0.6,0    c0.1,1,0.1,1.9,0.2,2.9c0,0.2,0.5,0.4,0.6,0.5c-0.6,0-1.4,0-2,0c0.1-0.3,0.4-0.6,0.4-0.8c0-2.1,0-4.3,0-6.4    C446.7,57.4,446.3,57.3,445.9,57.2z M448.2,57.5c-0.2,0.1-0.6-0.2-0.6,0.4c0,1,0,2.1,0,3.1c0,0.1,0.2,0.4,0.3,0.4    c1.2,0.4,2,0.1,2.2-1.2c0.1-0.4,0-0.8,0-1.3C449.8,58,449.2,57.5,448.2,57.5z"/>
		<path class="st0" d="M460.4,63.4c-0.1,0.5-0.2,1-0.3,1.5c0,0.1-0.2,0.2-0.4,0.3c-1.6,0.4-3.1,0.4-4.6-0.6c-1.6-1-2.1-2.9-1.6-4.8    c0.5-1.7,1.8-2.8,3.8-2.9c0.5,0,1,0,1.5,0.1c0.5,0.1,0.9,0.2,1.5,0.3c0,0.6-0.1,1.3-0.1,1.8c-0.1,0-0.1,0-0.1,0    c-0.1-1.2-0.9-1.6-1.9-1.7c-1.6-0.2-3.2,0.3-3.7,1.9c-0.6,2.1,0.2,4.3,2,5.2c0.7,0.4,1.6,0.4,2.3,0.3c0.6-0.1,1.2-0.5,1.4-1.2    C460.2,63.5,460.3,63.4,460.4,63.4C460.3,63.4,460.3,63.4,460.4,63.4z"/>
		<path class="st0" d="M439.5,65.3c-0.6,0-1.4,0-2,0c0.8-0.1,1-0.7,1.2-1.4c0.7-2,1.4-4.1,2.1-6.2c0.1-0.2,0.2-0.5,0.3-0.8    c0.2,0.3,0.3,0.5,0.3,0.6c0.7,2,1.5,4,2.2,6c0.1,0.3,0.2,0.6,0.4,0.9c0.3,0.3,0.6,0.6,0.8,0.8c-0.5,0-1.1,0-1.7,0    c-0.2-0.6-0.4-1.1-0.6-1.7c-0.6-1.5-0.6-1.5-2.1-1.5c-0.6,0-0.9,0.2-1,0.7s-0.3,1-0.5,1.5C439,64.8,439,65.1,439.5,65.3z     M441.1,58.7c-0.1,0-0.1,0-0.2,0c-0.3,1-0.6,1.9-0.9,2.9c0.7,0,1.4,0,2,0C441.7,60.7,441.4,59.7,441.1,58.7z"/>
		<path class="st0" d="M462.3,65.3c0.2-0.4,0.5-0.6,0.5-0.8c0-2.2,0-4.3,0-6.5c0-0.6-0.4-0.6-0.7-0.7c1.4,0,2.8,0,4.1,0    c0,0.4-0.1,0.8-0.1,1.2c-0.2-0.5-0.4-0.7-0.9-0.7c-0.5,0-0.9,0-1.3,0c-0.1,0-0.2,0.2-0.2,0.3c0,0.9,0,1.8,0,2.9    c0.8-0.1,1.6-0.1,2.4-0.1c0,0.3-0.1,0.7-0.1,1.4c-0.6-1.5-1.5-0.7-2.2-1c0,1.1,0,2.2,0,3.3c0,0.1,0.1,0.2,0.2,0.3    c0.7,0.6,2.1,0.1,2.6-0.7c-0.1,0.4-0.1,0.7-0.2,1.1c0,0.1-0.3,0.2-0.5,0.2c-0.3,0-0.5,0-0.7,0C464.2,65.3,463.3,65.3,462.3,65.3z"/>
		<path class="st0" d="M468.3,57.2c0.8,0,1.6,0,2.4,0c-0.7,0.1-0.7,0.6-0.7,1.1c0,1.9,0.1,3.9,0.1,5.8c0,0.5,0.2,0.7,0.6,0.7    c0.5,0,0.9,0.1,1.4,0c0.6,0,0.8-0.5,0.9-1c0.1,0,0.1,0,0.2,0c-0.1,0.4-0.1,0.8-0.3,1.2c0,0.1-0.3,0.2-0.5,0.2c-1.3,0-2.7,0-4-0.1    c0.6-0.2,0.6-0.6,0.6-0.9c0-2,0-4,0-6C469.1,57.8,469.1,57.2,468.3,57.2z"/>
		<path class="st0" d="M465.4,74.7c0.5-0.9,0.2-1.8,0.3-2.8c-1,0-1.9,0-3,0c0,0.8,0,1.6,0,2.4c0,0.1,0.3,0.3,0.5,0.4    c-0.5,0-0.9,0-1.4,0c0.1-0.2,0.2-0.4,0.2-0.6c0-1.4,0.1-2.8,0-4.1c0-0.3-0.2-0.6-0.3-0.7c0.3,0,0.7,0,1.2,0    c-0.6,0.6-0.2,1.5-0.3,2.2c1,0,1.9,0,3,0c-0.1-0.7,0.4-1.6-0.4-2.2c0.4,0,0.8,0,1.2,0c-0.1,0.3-0.2,0.5-0.2,0.7c0,1.3,0,2.7,0,4    c0,0.4,0,0.7,0.6,0.7C466.3,74.7,465.8,74.7,465.4,74.7z"/>
		<path class="st0" d="M498.7,73.7c0-1.3,0-2.6,0-3.8c0-0.2-0.3-0.5-0.4-0.6c0.3,0,0.7,0,1,0c-0.1,0.3-0.2,0.6-0.2,0.8    c0,1.5,0,3,0,4.5c-0.1,0-0.1,0.1-0.2,0.1c-1.3-1.5-2.7-2.9-4-4.4c0,0.2,0,0.3,0,0.5c0,1,0.1,2.1,0.1,3.1c0,0.4,0.1,0.6,0.6,0.7    c-0.5,0-0.9,0-1.2,0c0.1-0.2,0.3-0.5,0.3-0.7c0-1.6,0-3.1,0-4.7l0.1-0.1C496,70.7,497.3,72.2,498.7,73.7z"/>
		<path class="st0" d="M445.2,74.7c-0.3,0-0.6,0-1,0c-0.3-0.6-0.5-1.3-0.7-1.9c0-0.1-0.2-0.2-0.4-0.2c-0.5,0-1.1-0.2-1.3,0.1    c-0.4,0.4-0.4,1-0.6,1.6c0,0.1,0.1,0.3,0.2,0.5c-0.4,0-0.8,0-1.1,0c0.2-0.3,0.5-0.5,0.6-0.8c0.6-1.4,1-2.8,1.5-4.1    c0.1-0.2,0.2-0.4,0.3-0.6c0.4,0.9,0.6,1.7,0.9,2.5c0.3,0.8,0.6,1.6,0.9,2.4C444.7,74.3,444.9,74.6,445.2,74.7z M443.3,72.3    c-0.3-0.7-0.5-1.3-0.6-1.9h-0.1c-0.2,0.6-0.4,1.3-0.6,1.9C442.4,72.3,442.8,72.3,443.3,72.3z"/>
		<path class="st0" d="M434.9,69.3c0,0.3-0.1,0.5-0.1,0.7c-0.5-0.7-1.1-0.4-1.7-0.5c0,0.7,0,1.4,0,2.1c0.6,0,1,0,1.6,0    c0,0.2,0,0.5,0,0.7c-0.4-0.6-1-0.4-1.6-0.5c-0.3,1.3-0.1,2.5,0.5,2.8c-0.6,0-1,0-1.5,0c0.1-0.2,0.3-0.4,0.3-0.6c0-1.4,0-2.8,0-4.1    c0-0.2-0.2-0.5-0.3-0.6C433,69.3,433.9,69.3,434.9,69.3z"/>
		<path class="st0" d="M474.8,74.7c0.1-0.3,0.2-0.5,0.2-0.7c0-1.3,0-2.7,0-4c0-0.2-0.2-0.5-0.2-0.6c0.4,0,0.7,0,1.1,0    c-0.1,0.2-0.2,0.5-0.2,0.7c0,1.3,0,2.7,0,4c0,0.3,0.2,0.6,0.3,0.7C475.6,74.7,475.1,74.7,474.8,74.7z"/>
	</g>
</g>
<g>
	<g>
		<path class="st0" d="M296.9,23.5c0.2,0,0.4,0,0.6,0c0.2,0,0.3,0.1,0.5,0.1c0.2,0,0.4,0,0.6,0c0.3,0,0.5-0.1,0.8-0.1    c0.3,0,0.4,0.1,0.3,0.4c0,0.2-0.1,0.4-0.2,0.6c-0.1,0.4,0,0.5,0.3,0.7c0.3,0.2,0.4,0.4,0.5,0.7c0.1,0.2,0,0.3-0.2,0.4    c-0.1,0.1-0.2,0.1-0.4,0.2c0.4,0.3,0.9,0.3,1.3,0.2c0.3-0.1,0.6-0.3,0.8-0.7c-0.4,0.1-0.7,0.1-1.1,0.2c-0.2-0.3-0.2-0.6-0.1-0.9    c0-0.3,0-0.5-0.2-0.6c-0.1-0.1-0.3-0.3-0.4-0.4c-0.1-0.2-0.2-0.4-0.2-0.7c0.2-0.1,0.4-0.2,0.7-0.2c0.2,0,0.3-0.1,0.4-0.3    c0.1-0.2,0.2-0.5,0.5-0.6c0.3,0.1,0.7,0.2,0.9,0.5c0.1,0.1,0.2,0.1,0.3,0.1c0.3,0,0.6,0.1,0.9,0.1c0.1,0.2,0.1,0.4,0,0.6    c0,0.1-0.1,0.3-0.1,0.4c-0.1,0.3-0.1,0.5,0.1,0.7c0.2,0.3,0.2,0.6,0.2,1c-0.3,0.2-0.6,0.1-1,0.1c0.1,0.3,0.5,0.5,1.1,0.5    c0.5,0,1.1-0.3,1.3-0.7c-0.3,0-0.6,0.2-0.9,0c-0.1-0.4-0.1-0.7,0-1.1c0.1-0.2,0-0.3-0.1-0.5c-0.1-0.2-0.3-0.4-0.4-0.6    c-0.2-0.4-0.2-0.6,0.3-0.7c0.2,0,0.4-0.1,0.5-0.1c0.2,0,0.3-0.1,0.4-0.2c0.2-0.2,0.4-0.4,0.6-0.6c0.3,0.1,0.4,0.2,0.5,0.4    c0.2,0.3,0.5,0.5,0.9,0.5c0.2,0,0.4,0.1,0.5,0.1c0.2,0.1,0.2,0.2,0.1,0.3c-0.1,0.3-0.3,0.6-0.5,0.8c-0.1,0.2-0.2,0.3-0.1,0.5    c0.1,0.4,0.1,0.7,0.1,1.1c-0.3,0.2-0.6,0-0.9,0c0.6,0.8,2,0.9,2.5,0.2c-0.2,0-0.4,0-0.6,0c-0.3,0-0.4-0.1-0.4-0.4    c0-0.4,0.2-0.7,0.4-1c-0.2-0.4-0.3-0.9-0.2-1.4c0.3,0,0.6-0.1,0.9-0.1c0.2,0,0.3,0,0.4-0.1c0.2-0.1,0.4-0.3,0.6-0.4    c0.1-0.1,0.3-0.1,0.4,0.1c0.1,0.1,0.2,0.3,0.3,0.4c0.1,0.1,0.1,0.2,0.1,0.3c0.3,0.1,0.6,0.1,1,0.2c0,0.4-0.2,0.7-0.4,0.9    c-0.3,0.3-0.5,0.7-0.4,1.1c0,0.1,0,0.2,0,0.3c-0.1,0.3-0.1,0.4-0.5,0.3c-0.1,0-0.3-0.1-0.4-0.1c-0.1,0-0.2,0-0.2,0    c0.2,0.7,1.1,1,2,0.5c-0.1-0.1-0.2-0.1-0.3-0.2c-0.3-0.1-0.3-0.2-0.2-0.5c0.2-0.3,0.4-0.5,0.6-0.8c0.1-0.1,0.2-0.2,0.1-0.4    c-0.1-0.2-0.1-0.5-0.1-0.8c0-0.1,0-0.2,0-0.4c0.4-0.1,0.7-0.1,1.1,0c0.2,0.1,0.3,0.1,0.5,0c0.4-0.2,0.7-0.2,1.2-0.1    c-0.1,0.2-0.2,0.3-0.3,0.4c-0.2,0.3-0.4,0.5-0.5,0.8c-0.1,0.1-0.1,0.3-0.1,0.5c0.1,0.3-0.1,0.5-0.3,0.6c-0.2,0.1-0.4,0.2-0.5,0.4    c-0.2,0.4-0.5,0.9-0.7,1.4c0.1,0.1,0.1,0.2,0.2,0.2c0.3,0.5,0,1.1-0.6,1.2c-0.3,0-0.4,0.2-0.3,0.5c0,0.1,0.1,0.2,0.1,0.3    c0.1,0.3,0,0.4-0.2,0.5c-0.1,0.1-0.2,0.2-0.2,0.3c0,0.1,0,0.2,0.1,0.3c0,0,0.1,0.1,0.1,0.1c0.3,0.3,0.4,0.7,0.1,1.1    c0,0.1-0.1,0.1-0.2,0.2c0.2,0.1,0.4,0.2,0.7,0.3c0.9,0.3,1.7,0.5,2.6,0.4c0.2,0,0.4-0.1,0.5-0.2c0.3-0.3,0.7-0.6,1-0.8    c0.4-0.2,0.7-0.4,1.1-0.6c0.4-0.2,0.7-0.2,1.1-0.1c0.3,0.1,0.6,0.2,0.8,0.5c0.6,0.7,1.2,1.5,1.7,2.4c0.3,0.6,0.3,1.2,0,1.8    c-0.2,0.5-0.9,0.9-1.6,0.7c-0.4-0.1-0.6-0.5-0.7-0.9c-0.1-0.4,0-0.7,0.3-1c0.2-0.2,0.4-0.2,0.7-0.2c0.2,0,0.3,0.2,0.4,0.4    c0,0.1,0,0.2-0.1,0.3c-0.1,0.1-0.2,0-0.3,0c0,0,0,0-0.1,0c-0.1,0-0.3-0.2-0.3,0c-0.1,0.1-0.1,0.3-0.1,0.4c0.1,0.4,0.7,0.6,1,0.4    c0.4-0.3,0.5-1.2,0.2-1.6c-0.5-0.6-1.5-0.5-1.9,0.1c-0.4,0.6-0.5,1.2-0.4,1.9c0,0.2,0.1,0.3,0.1,0.5c0.3,0,0.6,0.1,0.8,0.1    c0.9,0.2,1.7,0.7,2.3,1.5c0.3,0.4,0.4,0.8,0.5,1.3c0.2,1.5-0.3,2.6-1.4,3.5c-0.2,0.1-0.3,0.3-0.5,0.4c0.1,0.2,0.2,0.4,0.3,0.6    c0.1,0.2,0.3,0.5,0.4,0.7c0.1,0.3,0.2,0.5,0,0.9c-0.2,0.5-0.4,1.1-0.6,1.6c-0.2,0.5-0.5,0.9-0.7,1.4c-0.2,0.4-0.7,0.5-1.1,0.3    c-0.1,0-0.1-0.1-0.2-0.1c0,0,0,0-0.1,0c0,0.1,0,0.2,0,0.3c0,0.7,0.1,1.5-0.1,2.2c-0.1,0.4-0.3,0.7-0.5,1c-0.1,0.1-0.2,0.2-0.3,0.2    c-0.3,0.1-0.4,0.3-0.5,0.6c0,0.1-0.1,0.2-0.1,0.3c-0.1,0.2-0.2,0.4-0.4,0.5c-0.1,0.1-0.3,0.1-0.4,0.2c-0.2,0.1-0.4,0.3-0.5,0.6    c0,0.1-0.1,0.2-0.2,0.3c-0.3,0.3-0.6,0.4-0.9,0.4c-0.1,0-0.2,0-0.3,0.1c-0.2,0.3-0.5,0.4-0.8,0.4c-0.1,0-0.3,0-0.4,0.1    c-0.1,0-0.3,0.1-0.4,0.2c-0.2,0.2-0.5,0.2-0.8,0.2c-0.2,0-0.3,0-0.5,0c-0.3,0-0.3,0.1-0.3,0.4c0,0.3-0.1,0.5-0.4,0.6    c-0.1,0-0.2,0.2-0.4,0.3c-0.1,0.1-0.1,0.2-0.2,0.2c-0.3,0.3-0.6,0.5-1,0.3c-0.1,0.1-0.1,0.1-0.1,0.2c-0.2,0.4-0.6,0.6-1,0.8    c-0.9,0.3-1.8,0.2-2.7-0.1c-0.3-0.1-0.6-0.3-0.7-0.6c0,0,0-0.1-0.1-0.1c-0.1,0-0.2,0-0.3,0.1c-0.3,0-0.6-0.1-0.8-0.4    c-0.1-0.2-0.3-0.3-0.5-0.5c-0.3-0.2-0.5-0.4-0.5-0.7c0-0.1-0.1-0.2-0.1-0.2c-0.1-0.1-0.3-0.1-0.5-0.1c-0.2,0-0.4,0-0.7,0    c-0.1,0-0.3,0-0.4-0.1c-0.2-0.1-0.3-0.2-0.5-0.2c-0.4,0-0.8-0.2-1-0.5c-0.1-0.1-0.3-0.1-0.4-0.2c-0.4,0-0.7-0.2-0.9-0.4    c-0.1-0.1-0.2-0.2-0.2-0.4c0-0.2-0.2-0.4-0.4-0.5c-0.1,0-0.2-0.1-0.3-0.1c-0.2-0.1-0.4-0.2-0.5-0.4c-0.1-0.3-0.4-0.5-0.3-0.8    c-0.1,0-0.1-0.1-0.2-0.1c-1-0.7-1.4-1.7-1.2-2.9c0-0.2,0.1-0.4,0.1-0.6c0-0.2,0-0.4-0.2-0.5c-0.1,0.1-0.2,0.1-0.3,0.2    c-0.3,0.2-0.6,0.2-0.9,0c-0.3-0.1-0.5-0.3-0.6-0.6c-0.4-0.8-0.8-1.7-1.2-2.5c-0.2-0.3-0.2-0.7,0-1c0.1-0.2,0.2-0.4,0.4-0.6    c0.1-0.2,0.3-0.4,0.4-0.6c-0.1-0.2-0.3-0.3-0.5-0.5c-1.2-0.9-1.8-2.1-1.5-3.6c0.2-1.2,0.9-2,2-2.5c0.5-0.2,1-0.2,1.5-0.4    c0.4-0.8,0.1-2.1-0.6-2.6c-0.3-0.3-0.7-0.3-1.1-0.1c-0.4,0.2-0.7,0.5-0.7,0.9c0,0.2,0,0.3,0,0.5c0.1,0.4,0.4,0.6,0.8,0.7    c0.4,0,0.7-0.4,0.6-0.8c-0.1-0.2-0.2-0.2-0.3-0.2c-0.1,0-0.1,0.1-0.2,0.1c-0.2,0.1-0.4,0-0.4-0.2c0-0.2,0.2-0.4,0.4-0.5    c0.7-0.1,1,0.2,1,1c0,0.5-0.3,0.9-0.7,1c-0.4,0.1-1.1,0.1-1.4-0.3c-0.4-0.6-0.6-1.2-0.3-1.8c0.2-0.4,0.4-0.7,0.6-1.1    c0.3-0.5,0.7-1,1-1.5c0.3-0.5,1.1-0.7,1.7-0.6c0.6,0.1,1,0.4,1.5,0.7c0.3,0.2,0.5,0.4,0.8,0.6c0.5,0.3,1,0.4,1.5,0.3    c0.8-0.2,1.6-0.3,2.4-0.5c0.1,0,0.2-0.1,0.3-0.1c-0.1-0.1-0.2-0.2-0.2-0.2c-0.4-0.3-0.4-0.8-0.1-1.1c0,0,0,0,0.1-0.1    c0.3-0.3,0.3-0.4-0.1-0.6c-0.3-0.2-0.3-0.3-0.2-0.7c0.1-0.3,0-0.5-0.3-0.6c-0.1,0-0.1,0-0.2-0.1c-0.6-0.1-0.7-0.9-0.4-1.2    c0.1-0.2,0.1-0.3,0-0.4c-0.2-0.4-0.4-0.7-0.6-1.1c-0.1-0.2-0.3-0.4-0.6-0.5c-0.3-0.1-0.3-0.4-0.3-0.6c0-0.2,0-0.4-0.1-0.5    c-0.2-0.3-0.4-0.6-0.6-0.9C297,23.6,296.9,23.6,296.9,23.5z M319.8,33.3c-0.2-0.4-0.4-0.8-0.7-1.1c-0.3-0.4-0.7-0.5-1.2-0.4    c-0.5,0.1-0.9,0.3-1.3,0.5c-0.3,0.3-0.7,0.5-1,0.8c-0.6,0.5-1.2,0.9-1.8,1.4c-0.8,0.6-1.7,0.9-2.7,1c-0.1,0-0.1,0-0.2,0    c0,0.2,0,0.4-0.1,0.6c0,0.2-0.1,0.4-0.2,0.5c1.1,0,1.5-0.1,2.1-0.7c0.1,0.1,0.2,0.2,0.3,0.4c0.1,0.3,0.3,0.6,0.2,0.9    c-0.1,0.2,0,0.4,0,0.6c0.1,0.2,0.1,0.3,0.1,0.5c0.1,0.3,0,0.5-0.2,0.8c-0.2,0.3-0.2,0.6,0,1c0.1,0.2,0.1,0.3,0.2,0.5    c0.8,2.1,1.1,4.2,0.7,6.4c-0.4,2.3-1.4,4.3-3.1,5.9c-0.1,0.1-0.2,0.2-0.1,0.4c0,0.2,0,0.4,0,0.6c-0.1,1-1.2,1.5-2,1    c-0.6-0.4-0.6-1.2,0-1.7c0.4-0.2,0.9-0.1,1.1,0.2c0.1,0.1,0,0.4-0.1,0.5c-0.1,0.1-0.2,0.1-0.4-0.1c0,0-0.1-0.1-0.1-0.1    c-0.1-0.1-0.3,0-0.3,0.1c-0.1,0.2,0,0.4,0.2,0.5c0.2,0.1,0.6,0.1,0.8-0.1c0.4-0.4,0.3-1.3-0.3-1.5c-1-0.3-1.7,0.1-1.8,1.1    c-0.1,0.6,0.1,1.1,0.4,1.6c0.4,0.6,1,0.8,1.7,0.7c0.1,0,0.2-0.1,0.4-0.1c0-0.1-0.1-0.2-0.1-0.3c-0.1-0.4,0.1-0.8,0.5-0.9    c0.3-0.1,0.5-0.2,0.6-0.4c0-0.1,0.1-0.1,0.2-0.2c0.2-0.1,0.3-0.2,0.3-0.4c0.1-0.3,0.2-0.6,0.5-0.7c0.1-0.1,0.2-0.2,0.2-0.3    c0-0.3,0.1-0.6,0.3-0.9c0.1-0.2,0.3-0.3,0.4-0.5c-0.2-0.5,0-0.9,0.2-1.3c0.2-0.5,0.7-0.6,1.1-0.8c0-0.3,0.1-0.7,0.1-1    c0.1-0.9,0.2-1.7,0.5-2.5c0.4-1,1.1-1.5,2.1-1.7c0.1,0,0.2,0,0.3-0.1c-0.1-0.2-0.1-0.3-0.2-0.5c-0.1-0.3-0.2-0.4-0.5-0.4    c-0.7-0.1-1.2-0.4-1.5-1.1c-0.3-0.7-0.2-1.3,0.1-1.9c0.1-0.2,0.1-0.3-0.1-0.4c-0.8-0.4-1.2-1-1.4-1.8c0-0.1,0-0.2-0.1-0.2    c-0.2-0.8-0.3-1.5-0.7-2.2c0,0,0,0,0-0.1c0.2,0,0.4,0,0.6,0c0.4,0,0.8,0.2,1.1,0.5c0.1,0.1,0.3,0.2,0.5,0.1c0.5-0.2,1,0,1.4,0.3    c0.1,0.1,0.2,0.3,0.3,0.4c-1,0.6-1.2,1.5-0.4,2.1c-0.1-0.9,0.6-1.3,1.1-1.7c0-0.6,0-1.1,0-1.7c0-0.4,0.1-0.8,0.3-1.1    C318.4,33.6,319,33.2,319.8,33.3z M294.5,44.2c0.2,0,0.3,0,0.5,0c0.3,0,0.6,0.1,0.9,0.3c0.4,0.2,0.7,0.5,0.9,0.9    c0.3,0.4,0.4,0.8,0.5,1.3c0.1,0.8,0.3,1.6,0.4,2.4c0,0.3,0.1,0.4,0.4,0.4c0.4,0.1,0.6,0.3,0.8,0.6c0.2,0.3,0.3,0.7,0.2,1.1    c0,0.1,0,0.3,0.1,0.4c0.4,0.3,0.6,0.8,0.6,1.3c0,0.1,0.1,0.2,0.2,0.3c0.1,0.1,0.3,0.3,0.4,0.4c0.1,0.3,0.3,0.6,0.6,0.8    c0,0,0.1,0.1,0.1,0.2c0.1,0.1,0.2,0.2,0.2,0.2c0.1,0.1,0.2,0.1,0.3,0.1c0.3,0.1,0.5,0.2,0.5,0.6c0,0.2,0,0.3,0,0.5    c0,0.1,0,0.2-0.1,0.3c0.2,0,0.3,0.1,0.5,0.1c0.5,0,1-0.2,1.3-0.5c0.5-0.6,0.7-1.3,0.5-2c-0.1-0.7-0.5-1.1-1.4-1.1    c-0.5,0-0.9,0.4-0.9,0.9c0,0.5,0.4,0.9,0.9,0.8c0.2,0,0.3-0.1,0.4-0.3c0.1-0.2,0-0.3-0.2-0.5c-0.2,0.1-0.3,0.2-0.5,0.3    c-0.3-0.2-0.4-0.3-0.3-0.5c0.1-0.3,0.6-0.5,0.9-0.4c0.5,0.2,0.7,0.5,0.6,1c0,0.5-0.4,0.9-0.8,0.9c-0.9,0.1-1.8-0.6-1.6-1.7    c0-0.2,0-0.4-0.2-0.6c-0.7-0.7-1.3-1.4-1.9-2.2c-1.3-2.1-1.6-4.4-1.4-6.8c0.1-1.2,0.3-2.4,0.9-3.6c0.2-0.3,0.2-0.7,0-1    c-0.2-0.4-0.3-0.9-0.1-1.3c0.1-0.1,0.1-0.3,0.1-0.5c-0.2-0.4,0-0.7,0.1-1c0.1-0.2,0.2-0.3,0.4-0.3c0.4,0.6,1.1,0.8,1.9,0.6    c-0.1-0.4-0.2-0.7-0.2-1.1c-0.1,0-0.1,0-0.2,0c-0.7-0.1-1.4-0.3-2-0.7c-0.9-0.5-1.8-1.1-2.6-1.8c-0.4-0.3-0.7-0.6-1.1-0.9    c-0.4-0.3-0.8-0.4-1.3-0.5c-0.2,0-0.4,0-0.6,0.1c-0.5,0.3-0.8,0.8-1.1,1.4c0.2,0,0.4,0.1,0.6,0.1c0.7,0.2,1.1,0.7,1.4,1.4    c0.2,0.5,0.3,1.1,0.2,1.7c0,0.2,0,0.4-0.1,0.6c0.3,0.2,0.7,0.3,0.9,0.7c0.2,0.3,0.2,0.7,0.4,1c0,0,0.1,0,0.1-0.1    c0.4-0.5,0.4-1.1-0.1-1.6c-0.2-0.2-0.4-0.3-0.5-0.5c0.3-0.6,1-0.9,1.7-0.7c0.2,0.1,0.4,0.1,0.5-0.1c0.1-0.1,0.2-0.2,0.3-0.3    c0.4-0.4,0.9-0.3,1.3-0.2c0.1,0,0.1,0.1,0.2,0.2c-0.4,0.4-0.5,0.9-0.6,1.4c-0.1,0.4-0.2,0.9-0.4,1.3c-0.3,0.7-0.7,1.2-1.4,1.6    c0,0-0.1,0.1-0.1,0.1c0.1,0.3,0.2,0.6,0.3,0.9c0.2,1.2-0.4,2.2-1.6,2.4c-0.1,0-0.1,0-0.2,0c-0.1,0-0.1,0.1-0.2,0.1    C294.7,43.7,294.6,43.9,294.5,44.2z M293.1,42.8c-0.1,0.1-0.1,0.2-0.2,0.3c-0.3,0.6-0.6,1.2-1,1.7c-0.2,0.3-0.2,0.6-0.1,0.9    c0.1,0.2,0.2,0.4,0.2,0.6c0.1,0.3,0.2,0.5,0.3,0.8c0.1,0.3,0.1,0.3,0.4,0.3c0.3-0.1,0.7,0,0.9,0.2c0.3,0.2,0.5,0.4,0.7,0.7    c0.2,0.3,0.4,0.7,0.6,1c0.2,0.4,0.4,0.8,0.6,1.2c0.1,0.1,0.2,0.2,0.3,0.3c0.5,0.2,1-0.2,1-0.8c0-0.5-0.1-1-0.1-1.6    c-0.1-0.8-0.2-1.6-0.6-2.4c-0.5-1-1.2-1.3-2.2-1.1c-0.1,0-0.2,0-0.3-0.1c-0.1-0.3-0.2-0.6,0-0.9c0.1-0.1,0.2-0.3,0.2-0.4    c0-0.1,0-0.2,0-0.3C293.8,43.1,293.5,43,293.1,42.8z M318.4,44.2c-0.1,0.2-0.1,0.3-0.2,0.5c-0.1,0.2-0.2,0.2-0.3,0.1    c-0.4-0.2-0.8-0.1-1.2,0.1c-0.5,0.2-0.8,0.6-1,1.1c-0.5,1.3-0.6,2.6-0.5,4c0,0.4,0.1,0.5,0.5,0.7c0.3,0.1,0.4,0.1,0.6-0.2    c0.2-0.3,0.4-0.7,0.6-1c0.2-0.4,0.4-0.8,0.7-1.2c0.5-0.7,1.1-1.1,1.9-0.9c0.3-0.6,0.6-1.3,0.7-1.9c0-0.1,0-0.2-0.1-0.3    c-0.4-0.8-0.8-1.5-1.2-2.2c0,0-0.1-0.1-0.1-0.1c-0.3,0.1-0.6,0.2-1,0.3C317.9,43.5,317.9,43.5,318.4,44.2z M302.6,57.1    c0.2,0.3,0.4,0.5,0.7,0.7c0.1,0.1,0.2,0.1,0.3,0c0.1-0.1,0.1-0.1,0.1-0.2c0.1-0.1,0.1-0.3,0.2-0.4c0.1-0.2,0.4-0.2,0.6-0.1    c0.2,0.1,0.2,0.2,0.1,0.4c0,0.2-0.1,0.4-0.1,0.5c-0.1,0.3,0,0.5,0.3,0.6c0.9,0.5,1.9,0.5,2.8,0c0.3-0.2,0.3-0.3,0.2-0.6    c0-0.1-0.1-0.3-0.1-0.4c-0.1-0.3,0-0.4,0.2-0.5c0.2-0.1,0.4,0,0.5,0.2c0.1,0.1,0.2,0.3,0.2,0.4c0.1,0.3,0.4,0.3,0.5,0    c0.1-0.2,0.2-0.3,0.4-0.4c0.1-0.1,0.1-0.2,0.3-0.3c-0.2,0-0.3-0.1-0.4-0.1c-0.4,0-0.7-0.2-1-0.4c-0.5-0.4-0.8-0.8-1-1.4    c0-0.1-0.1-0.2-0.1-0.4c-0.8,0-1.5,0-2.3,0c0,0.1,0,0.2-0.1,0.3c-0.2,0.8-0.7,1.4-1.4,1.8c-0.2,0.1-0.4,0.2-0.6,0.2    C302.8,56.9,302.6,56.9,302.6,57.1z M294.2,41.5c0-0.3-0.2-0.5-0.4-0.7c-0.3-0.2-0.6-0.3-0.9-0.3c-0.3,0-0.6,0.3-0.5,0.6    c0.1,0.3,0.2,0.6,0.4,0.7c0.6,0.5,1.2,0.8,2,0.8c1,0,1.5-0.7,1.4-1.6c0-0.7-0.5-1.2-1.1-1.5c-0.1,0-0.2,0-0.3,0    c-0.4,0.2-0.7,0.1-1.1,0c-0.3-0.1-0.5-0.2-0.8-0.3c-0.4-0.2-0.8-0.2-1.2-0.1c-0.7,0.2-1.1,0.8-1.1,1.5c0.1,1.1,0.7,1.8,1.5,2.4    c0,0,0,0,0,0c0.1,0.1,0.2,0,0.3-0.1c0.2-0.2,0.1-0.5-0.1-0.7c-0.3-0.3-0.5-0.7-0.6-1.1c-0.2-0.7,0.4-1.3,1-1.3c0.9,0,1.5,0.3,2,1    c0.2,0.3,0.2,0.7,0,1c-0.1,0.1-0.2,0.2-0.3,0.2c-0.5,0.2-1.2-0.2-1.4-0.7c-0.1-0.2,0-0.3,0.1-0.4c0.1-0.1,0.2-0.1,0.3,0    c0.1,0.1,0.2,0.2,0.3,0.3C293.9,41.6,294,41.6,294.2,41.5z M319.7,43c0.1-0.1,0.2-0.2,0.4-0.3c0.6-0.4,1-1.1,1.3-1.8    c0.2-0.8-0.1-1.4-0.7-1.8c-0.4-0.2-0.8-0.2-1.3-0.1c-0.3,0.1-0.6,0.3-1,0.4c-0.4,0.2-0.8,0.2-1.3,0c-0.1-0.1-0.2,0-0.3,0    c-0.3,0.2-0.6,0.4-0.8,0.7c-0.4,0.5-0.3,1.1,0,1.7c0.3,0.5,0.8,0.7,1.3,0.7c0.8,0,1.5-0.4,2-1c0.1-0.1,0.2-0.3,0.2-0.5    c0.1-0.3-0.2-0.7-0.5-0.7c-0.5,0-1,0.2-1.2,0.7c0,0.1-0.1,0.2,0,0.3c0.1,0.1,0.2,0.1,0.3,0.1c0.1-0.1,0.2-0.1,0.4-0.2    c0.2-0.1,0.4-0.2,0.6-0.1c0,0.2-0.1,0.4-0.2,0.5c-0.2,0.2-0.5,0.3-0.7,0.4c-0.3,0.1-0.6,0-0.8-0.2c-0.2-0.2-0.2-0.5-0.1-0.8    c0-0.1,0-0.1,0.1-0.2c0.4-0.7,1-1,1.7-1.1c0.3,0,0.5,0,0.8,0.2c0.3,0.2,0.6,0.8,0.5,1.1c-0.1,0.5-0.3,0.9-0.7,1.2    c-0.2,0.1-0.2,0.3-0.1,0.4C319.5,42.8,319.6,42.9,319.7,43z M301.6,35.8c-0.1,0.2,0,0.4,0.1,0.5c0.3,0.4,0.7,0.4,1.2,0.3    c0.4-0.1,0.7-0.3,1-0.6c0.6-0.7,0.7-1.5,0.3-2.4c-0.2-0.5-0.6-0.8-1.2-0.9c-0.8-0.1-1.5-0.1-2.2,0.1c-0.8,0.2-1.5,0.4-2.3,0.5    c-0.2,0.1-0.4,0.1-0.7,0.1c0.2,0.2,0.4,0.3,0.6,0.5c0.4,0.3,0.9,0.4,1.3,0.3c0.4-0.1,0.7-0.3,1-0.4c0.4-0.1,0.7-0.3,1.1-0.4    c0.5-0.1,0.9,0,1.3,0.3c0.4,0.3,0.5,0.7,0.3,1.2C303.1,35.9,302.4,36.2,301.6,35.8z M310.3,35.8c-0.1,0-0.1,0-0.2,0.1    c-0.4,0.3-0.8,0.1-1.2-0.1c-0.6-0.4-0.7-1.2-0.2-1.7c0.4-0.4,0.9-0.5,1.4-0.4c0.3,0.1,0.7,0.2,1,0.3c0.4,0.1,0.7,0.3,1.1,0.4    c0.2,0.1,0.5,0.1,0.7,0c0.5-0.1,0.8-0.5,1.2-0.8c-1-0.1-2-0.4-2.9-0.6c-0.7-0.1-1.3-0.2-2-0.2c-0.3,0-0.5,0.1-0.7,0.2    c-0.6,0.4-0.9,0.9-0.8,1.6c0,1.1,0.7,1.9,1.7,2.1c0.4,0.1,0.7-0.1,0.9-0.4C310.3,36.2,310.4,36,310.3,35.8z M302.4,52.2    c-0.1-0.1-0.1-0.1-0.2-0.1c-1.8-1.7-2.8-3.8-3-6.2c-0.1-1.3,0-2.7,0.4-4c0.1-0.3,0.1-0.6,0.2-0.8c0-0.3-0.1-0.4-0.4-0.5    c-0.3,0.8-0.6,1.6-0.7,2.5c0,0.2-0.1,0.3,0,0.5c0,0,0,0.1,0,0.1c0,0.2-0.1,0.4-0.1,0.7c0,0.5,0,1.1,0.1,1.6c0,1.2,0.3,2.3,0.8,3.4    c0.6,1.2,1.4,2.2,2.3,3.1c0.1,0.1,0.2,0.1,0.3,0C302.1,52.4,302.2,52.3,302.4,52.2z M310.4,52.5c0.6-0.5,1.1-1.1,1.6-1.7    c1.4-2.1,1.9-4.4,1.7-6.9c-0.1-1-0.4-2-0.7-2.9c-0.1-0.2-0.2-0.3-0.3-0.5c-0.3,0.2-0.4,0.4-0.3,0.7c0,0.2,0.1,0.3,0.1,0.5    c0.1,0.2,0.2,0.5,0.2,0.7c0.2,0.9,0.4,1.9,0.3,2.8c-0.1,2.5-0.9,4.7-2.7,6.5c-0.1,0.1-0.3,0.3-0.5,0.4    C310,52.3,310.2,52.4,310.4,52.5z M312.2,28.3c0-0.3,0-0.3-0.4-0.4c-1.7-0.3-3.4-0.4-5.2-0.4c-1.4,0-2.9,0.1-4.3,0.1    c-0.8,0-1.6,0.1-2.4,0.4c-0.1,0-0.3,0.1-0.4,0.2c0.1,0.3,0.1,0.3,0.4,0.3c1.2-0.1,2.4-0.3,3.5-0.4c2.6-0.2,5.2-0.1,7.8,0.2    C311.5,28.3,311.8,28.3,312.2,28.3z M294.9,50.2C294.9,50.2,294.9,50.2,294.9,50.2c-0.1,0.1-0.1,0.2-0.1,0.3c0,0.2,0,0.3,0,0.5    c0.1,0.9,0.7,1.6,1.6,1.7c0.1,0,0.3,0,0.4,0c0.8,0,1.6-0.6,1.6-1.6c0-0.3-0.1-0.5-0.3-0.7c-0.2-0.2-0.3-0.2-0.5,0    c0,0-0.1,0.1-0.1,0.2c-0.3,0.5-0.7,0.8-1.2,0.9c-0.4,0.1-0.6,0-0.9-0.3c-0.2-0.2-0.3-0.4-0.4-0.6C295.1,50.5,295,50.3,294.9,50.2z     M317.3,50.1c-0.2,0.3-0.4,0.6-0.5,0.9c-0.3,0.4-0.6,0.6-1.1,0.4c-0.1,0-0.2-0.1-0.3-0.1c-0.5-0.3-0.9-0.6-0.9-1.2    c-0.4,0.1-0.6,0.3-0.7,0.8c-0.1,0.8,0.4,1.4,1.1,1.7c1.2,0.5,2.5-0.4,2.6-1.7C317.4,50.6,317.4,50.4,317.3,50.1z M306.9,34.2    c-0.1-0.4-0.1-0.8-0.2-1.2c-0.1-0.3-0.2-0.4-0.5-0.5c-0.3-0.1-0.6-0.1-0.7,0.2c-0.5,0.8-0.5,1.6-0.3,2.4c0.1,0.3,0.2,0.5,0.5,0.7    c0.1,0.1,0.3,0.1,0.4,0.1c0.2-0.1,0.4-0.2,0.5-0.4C306.8,35.1,306.8,34.7,306.9,34.2z M300.8,31.7c0.8-0.1,1.5-0.2,2.3-0.2    c1.5-0.1,3-0.2,4.5-0.1c1.1,0.1,2.2,0.2,3.3,0.3c0.3,0,0.4,0,0.3-0.4c-0.1,0-0.2-0.1-0.3-0.1c-1.1-0.1-2.1-0.3-3.2-0.4    c-2.1-0.1-4.2,0-6.2,0.3c-0.2,0-0.3,0-0.5,0.1C300.7,31.3,300.7,31.4,300.8,31.7z M301.7,50.5c0,0,0,0.1,0,0.1    c0.1,0.1,0.2,0.3,0.3,0.4c0,0,0.2,0.1,0.2,0.1c0.5-0.2,0.9-0.1,1.4-0.1c0.3,0,0.6,0,0.8-0.1c0.3-0.1,0.7-0.2,1-0.3    c0.6-0.1,1.3-0.1,1.9,0.2c0.3,0.2,0.6,0.2,1,0.2c0.6,0,1.1-0.1,1.7,0.1c0.1-0.1,0.2-0.2,0.3-0.3c0.1-0.1,0.1-0.2-0.1-0.3    c-0.1,0-0.2-0.1-0.2-0.1c-0.4,0-0.8,0-1.1,0c-0.6,0.1-1.1,0.1-1.6-0.1c-0.2-0.1-0.5-0.2-0.8-0.2c-0.5-0.1-1-0.1-1.5,0.2    c-0.2,0.1-0.4,0.2-0.6,0.2c-0.4,0-0.7,0-1.1,0c-0.3,0-0.6,0-1,0C302.2,50.4,302,50.5,301.7,50.5z M308.5,44.4    c-0.7-0.2-1.4-0.1-2.1-0.1c-0.2,0.7-0.1,1.3-0.1,2c0.7,0,1.4,0.1,2.2,0C308.5,45.7,308.7,45,308.5,44.4z M305.7,41.5    c-0.6,0-1.3-0.1-1.9,0.1c0,0.7-0.1,1.4,0,2.2c0.6,0,1.3-0.1,1.9-0.1C305.7,43,305.7,42.3,305.7,41.5z M305.6,39.6    c0-0.9,0-1.7,0-2.6c-0.5,0-1,0.1-1.4,0.3c-0.1,0-0.1,0.2-0.2,0.3c0,0.6-0.1,1.3-0.1,1.9c0,0.1,0,0.2,0,0.2    C304.5,39.7,305,39.7,305.6,39.6z M307,43.7c0-2.2,0-4.4-0.1-6.6c-0.1,0-0.2-0.1-0.2-0.1c-0.2,0-0.3,0-0.3,0.2c0,0.1,0,0.1,0,0.2    c0,1,0,2,0.1,3.1c0,0.9,0,1.9,0,2.8c0,0.1,0,0.2,0,0.3C306.6,43.7,306.7,43.7,307,43.7z M301.9,41.9c-0.1,0-0.1,0-0.2,0    c-0.5,0-1.1,0.2-1.6,0.4c-0.1,0-0.1,0.1-0.2,0.2c-0.1,0.3-0.2,0.6-0.2,0.9c0,0.2,0,0.5,0,0.7c0.6,0,1.1-0.1,1.7-0.1    c0.2,0,0.4-0.2,0.4-0.4c0-0.2,0-0.4,0-0.6c0-0.3-0.1-0.5,0-0.8C301.9,42.1,301.9,42,301.9,41.9z M310.5,44.5    c-0.1,0.7-0.2,1.3-0.1,1.9c0.6,0,1.2,0.3,1.8,0.2c0-0.5,0.1-1.1,0.1-1.6c0-0.2-0.1-0.3-0.3-0.3C311.6,44.7,311.1,44.6,310.5,44.5z     M291,38.8c0.1,0,0.2-0.1,0.3-0.1c0.5-0.2,1-0.3,1.5-0.2c0.3,0.1,0.6,0.2,0.9,0.3c0.2,0.1,0.4,0.1,0.7,0.2c0.2,0,0.3-0.1,0.4-0.2    c0.2-0.3,0.1-0.6-0.2-0.8c-0.1-0.1-0.3-0.2-0.5-0.3c-1-0.5-2.5,0-3,1C291,38.7,291,38.8,291,38.8z M320.9,38.6    c-0.1-0.2-0.2-0.3-0.3-0.4c-0.2-0.2-0.4-0.3-0.6-0.4c-0.7-0.5-1.5-0.5-2.3-0.2c-0.3,0.1-0.5,0.4-0.6,0.7c-0.1,0.2,0,0.4,0.2,0.5    c0.1,0.1,0.3,0.2,0.5,0.1c0.2-0.1,0.4-0.2,0.6-0.2c0.6-0.2,1.2-0.3,1.8-0.2C320.4,38.5,320.6,38.6,320.9,38.6z M307.7,37.4    c0,0.1,0,0.1,0,0.2c0,2,0.1,3.9,0.1,5.9c0,0.2,0,0.3,0.3,0.3c0.1,0,0.2,0,0.3,0c0-0.6,0-1.1,0-1.7c0-1.4-0.1-2.8-0.1-4.2    C308.2,37.4,308.2,37.4,307.7,37.4z M309.4,51.6c-0.1,0-0.1-0.1-0.1-0.1c-0.1,0-0.2,0-0.2,0c-0.8,0.1-1.6,0-2.4-0.3    c-0.3-0.1-0.6-0.1-0.9,0c-0.9,0.3-1.8,0.4-2.7,0.4c-0.1,0-0.2,0-0.3,0c0.2,0.3,0.4,0.4,0.8,0.5c0.6,0,1.1,0,1.6-0.2    c0.7-0.2,1.3-0.2,2,0c0.2,0.1,0.5,0.2,0.8,0.2C308.5,52.2,309,52.1,309.4,51.6z M295.8,39.3c0.1,0.1,0.3,0.1,0.5,0    c0.3-0.2,0.6-0.4,0.8-0.7c0.2-0.3,0.3-0.6,0.4-1c0.1-0.5,0.2-0.9,0.3-1.4c0,0,0-0.1,0-0.1c-0.4,0.1-0.5,0.5-0.8,0.7    c-0.3-0.3-0.7-0.5-1.1-0.2c0.1,0.2,0.1,0.4,0.2,0.6c0.2,0.4,0.2,0.7,0.1,1.1C296.2,38.6,296,38.9,295.8,39.3z M306.9,25.2    c-0.1-0.3-0.1-0.6-0.2-0.8c0.2-0.3,0.5-0.4,0.5-0.8c-0.1-0.1-0.3-0.1-0.5-0.1c-0.2,0-0.4-0.1-0.5-0.3c0-0.1-0.1-0.2-0.2-0.2    c-0.1-0.2-0.2-0.2-0.4,0c-0.1,0.1-0.2,0.2-0.3,0.3c-0.1,0.1-0.2,0.2-0.4,0.2c-0.2,0-0.4,0-0.6,0.1c0,0.1,0,0.2,0.1,0.2    c0.1,0.1,0.2,0.2,0.3,0.4c0.1,0.1,0.2,0.3,0.1,0.5c-0.1,0.2-0.1,0.4-0.1,0.6c0.4,0,0.7-0.2,1-0.4C306.2,25,306.5,25.2,306.9,25.2z     M314.1,36.1c0.1,0.3,0.1,0.5,0.2,0.7c0.1,0.4,0.2,0.8,0.3,1.2c0.2,0.6,0.6,1,1.2,1.2c0.1,0.1,0.3,0.1,0.4-0.1    c-0.1-0.2-0.2-0.4-0.3-0.6c-0.2-0.4-0.3-0.9-0.1-1.4c0.1-0.2,0.2-0.3,0.3-0.4c0.1-0.2,0.1-0.4-0.2-0.4c-0.2,0-0.3,0.1-0.5,0.1    c-0.1,0.1-0.3,0.1-0.4,0.2C314.6,36.5,314.4,36.2,314.1,36.1z M305.7,44.4c-0.1,0-0.1,0-0.1,0c-0.1,0-0.1,0-0.2,0    c-0.3,0-0.4,0-0.3,0.3c0.1,1.5,0.1,3,0.2,4.5c0,0.1,0,0.2,0.1,0.3c0.2,0,0.3,0,0.4-0.1C305.7,47.7,305.7,46,305.7,44.4z     M306.4,49.3c0.4,0.2,0.8,0.3,1.2,0.5c0.2,0.1,0.3,0.1,0.5,0c0.2-0.4,0.3-1.3,0.2-1.7c-0.6,0-1.3,0-1.9-0.1    C306.3,48.5,306.4,48.9,306.4,49.3z M310.6,25.5c0.2-0.3,0-0.6,0-0.9c0.2-0.2,0.5-0.4,0.6-0.7c-0.2,0-0.4,0-0.6-0.1    c-0.1-0.2-0.1-0.5-0.3-0.7c-0.2,0-0.4,0.2-0.5,0.4c-0.1,0.1-0.2,0.2-0.4,0.2c-0.2,0-0.3,0-0.5,0c-0.1,0.2,0.1,0.4,0.2,0.6    c0.1,0.2,0.1,0.3,0,0.5c-0.1,0.1-0.2,0.3-0.2,0.5c0.2,0,0.5-0.1,0.7-0.1c0.2-0.1,0.4-0.1,0.6,0.1    C310.2,25.4,310.4,25.5,310.6,25.5z M300.6,24c0.1,0.2,0.2,0.4,0.4,0.5c0.2,0.1,0.2,0.2,0.2,0.4c0,0.2-0.1,0.4,0.1,0.6    c0.2-0.1,0.4-0.1,0.6-0.2c0.2-0.1,0.3-0.1,0.5,0c0.2,0.1,0.5,0.2,0.8,0.1c-0.1-0.2-0.2-0.3-0.3-0.5c-0.1-0.2-0.2-0.3,0-0.5    c0.1-0.2,0.2-0.4,0.1-0.6c-0.1,0-0.2,0-0.3,0c-0.3,0-0.5-0.1-0.7-0.3c-0.1-0.1-0.3-0.2-0.4-0.3c-0.1,0.1-0.1,0.2-0.2,0.3    c-0.1,0.1-0.1,0.3-0.2,0.4C301,24,300.8,24,300.6,24z M309.6,43.8c0-0.1,0-0.2,0-0.3c0-0.7,0-1.5,0-2.2c0-0.9-0.1-1.8-0.1-2.7    c0-0.3-0.2-0.5-0.5-0.5c0,0.3,0.1,0.6,0.1,0.9c0,1.5,0,3,0.1,4.4C309.2,43.8,309.2,43.8,309.6,43.8z M302.8,49.8    c0.2,0,0.3,0,0.5,0c-0.2-1.8-0.3-3.5-0.3-5.2c-0.2-0.1-0.3-0.1-0.5,0C302.4,46.3,302.6,48,302.8,49.8z M304.5,49.8    c0-0.1,0-0.2,0-0.3c0-1.2-0.1-2.4-0.1-3.6c0-0.4,0-0.9,0-1.3c0-0.2-0.1-0.3-0.3-0.2c-0.2,0-0.2,0.1-0.2,0.3c0,1.7,0.1,3.3,0.3,5    c0,0.1,0,0.1,0.1,0.2C304.2,49.8,304.3,49.8,304.5,49.8z M302,49.7c0,0,0-0.1,0-0.1c-0.2-1.5-0.4-3.1-0.4-4.6c0-0.1,0-0.2,0-0.3    c-0.1-0.2-0.4-0.2-0.5,0c0,0.1,0,0.2,0,0.2c0.1,0.9,0.1,1.9,0.2,2.8c0.1,0.6,0.2,1.2,0.3,1.8c0,0.2,0.1,0.3,0.3,0.2    C301.9,49.8,302,49.8,302,49.7z M296.4,53.5c0.2,0.3,0.5,0.5,0.8,0.6c0.6,0.1,1.1-0.1,1.6-0.5c0.4-0.3,0.3-0.9-0.1-1.2    C298.1,53.1,297.3,53.5,296.4,53.5z M313.2,52.6c-0.1,0.3,0,0.8,0.2,1c0.3,0.3,0.7,0.4,1.2,0.5c0.4,0,0.8-0.1,1-0.4    c0.1-0.1,0.1-0.2,0.2-0.4c-0.7,0.1-1.3-0.1-1.8-0.4c-0.1-0.1-0.3-0.1-0.4-0.2C313.5,52.6,313.4,52.6,313.2,52.6z M311,50    c0.3-0.5,0.6-0.9,0.7-1.5c-0.5-0.2-0.9-0.2-1.4-0.2c-0.1,0.4-0.2,0.8-0.3,1.2c0,0.2,0,0.3,0.2,0.3C310.4,49.8,310.7,49.9,311,50z     M311,44c0-0.1,0-0.1,0-0.1c0.1-1.3,0-2.5-0.1-3.8c0-0.1,0-0.2-0.1-0.2c-0.2-0.1-0.3-0.3-0.3-0.5c0,0,0,0-0.1,0    c0.1,1.5,0.1,3,0.2,4.5C310.7,43.9,310.8,43.9,311,44z M300.2,44.8c-0.2,0.1-0.3,0.1-0.5,0.1c-0.2,1.2,0.3,3.3,0.9,4.1    C300.5,47.6,300.3,46.2,300.2,44.8z M310.1,34.9c0.5,0,1,0.1,1.6-0.1c-0.5-0.2-1-0.4-1.5-0.6c-0.2-0.1-0.5-0.1-0.7,0    c-0.2,0-0.5,0.3-0.5,0.6c0,0.2,0.3,0.6,0.4,0.6C309.7,35.4,309.9,35.3,310.1,34.9C310.1,35,310.1,35,310.1,34.9z M300.2,34.9    c0.1,0,0.2,0.1,0.2,0.1c0.4,0,0.8,0,1.1,0c0.2,0,0.3,0,0.4,0.2c0,0,0.1,0.1,0.1,0.1c0.2,0.2,0.5,0.2,0.7-0.1    c0.2-0.2,0.2-0.5,0-0.7c-0.1-0.2-0.3-0.3-0.5-0.3C301.5,34.1,300.9,34.6,300.2,34.9z M304.8,53.3c0,0.2,0.1,0.3,0.1,0.5    c0,0.2,0.1,0.3,0.3,0.3c0.4,0,0.9,0.1,1.3,0c0.8-0.1,0.6,0,0.8-0.7c0,0,0,0,0,0C306.5,53.3,305.7,53.3,304.8,53.3z M310.5,38.4    c0.2-0.5,0.7-0.5,1.1-0.6c0.2,0,0.5-0.1,0.7-0.1c0.3-0.1,0.4-0.3,0.2-0.7c-0.2,0-0.4,0.1-0.6,0.1c-0.2,0-0.4,0.1-0.6,0.1    c-0.3,0.1-0.5,0.1-0.8,0.2C310.2,37.6,310.2,38.1,310.5,38.4z M299.3,37c-0.1,0.4,0,0.6,0.3,0.7c0.3,0.1,0.5,0.1,0.8,0.1    c0.4,0,0.8,0.1,1.1,0.4c0.2-0.5,0.1-0.8-0.4-0.9c-0.3-0.1-0.5-0.1-0.8-0.1C300,37.3,299.6,37.2,299.3,37z M309.1,32.2    c-0.7-0.2-2.2-0.2-2.4-0.1c0.1,0.2,0.3,0.4,0.4,0.6c0.1,0.2,0.2,0.4,0.3,0.7C307.8,32.7,308.4,32.4,309.1,32.2z M305.2,32    c-0.8,0-1.6,0-2.3,0.2c0.7,0.2,1.3,0.5,1.7,1.1C304.7,32.8,304.9,32.4,305.2,32z M314.5,54.7c-0.2,0-0.4-0.1-0.5-0.1    c-0.4-0.1-0.8-0.2-1-0.6c-0.1-0.1-0.2-0.2-0.3-0.2c-0.2,0.1-0.2,0.2-0.2,0.4c0,0.1,0,0.2,0.1,0.3c0.3,0.4,1,0.7,1.5,0.6    C314.2,55,314.4,54.9,314.5,54.7z M303.3,28.7c0,0.2-0.1,0.4-0.1,0.5c0.3,0.1,0.7,0.1,1,0.2c0.3-0.2,0.6-0.4,0.9-0.8    C304.5,28.5,303.9,28.5,303.3,28.7z M298,55c0.6,0.2,1.3,0.1,1.7-0.4c0.2-0.3,0.2-0.5-0.1-0.8C299,54.2,298.5,54.6,298,55z     M308.5,29.2c0,0,0-0.1,0-0.1c0-0.4-0.1-0.5-0.5-0.5c-0.4,0-0.8,0-1.2,0c-0.1,0-0.1,0-0.2,0C307.2,29.1,307.8,29.4,308.5,29.2z     M308.9,29.2c0.2,0.1,0.4,0.1,0.5,0.2c0.2,0.1,0.3,0.1,0.5,0c0.3-0.1,0.6-0.3,0.9-0.5c-0.1-0.1-0.1-0.1-0.1-0.1    c-0.4-0.1-0.9-0.1-1.3-0.2c-0.1,0-0.1,0-0.2,0.1C309.1,28.9,309,29.1,308.9,29.2z M302.2,38.6C302.2,38.6,302.2,38.6,302.2,38.6    c-0.2,0.2-0.4,0.4-0.6,0.6c0,0,0,0.1,0,0.1c0,0.3-0.2,0.5-0.5,0.7c-0.1,0.1-0.2,0.2-0.2,0.4c0.4,0,0.7-0.2,1-0.3    c0,0,0.1-0.1,0.1-0.1C302.1,39.5,302.2,39,302.2,38.6z M312.8,24.1c0,0.4,0.1,0.7,0.2,1.1c-0.3,0.2-0.6,0.4-0.7,0.7    c0.3,0.1,0.4,0.1,0.6-0.2c0.2-0.4,0.4-0.8,0.7-1.2c0.1-0.1,0.1-0.2,0.2-0.3c-0.3,0.1-0.3,0.1-0.6,0    C313,24.1,312.9,24.1,312.8,24.1z M301,28.9c0.3,0.3,0.7,0.4,1,0.6c0,0,0.1,0,0.2,0c0.2-0.1,0.5-0.2,0.7-0.3    c-0.1-0.4-0.3-0.5-0.6-0.5C301.8,28.7,301.4,28.8,301,28.9z M298.1,24.4c0.3,0.5,0.6,0.9,0.8,1.4c0.2,0.3,0.3,0.3,0.6,0.1    c-0.2-0.3-0.5-0.5-0.8-0.7c0-0.4,0.3-0.7,0.2-1.1C298.7,24.2,298.4,24.3,298.1,24.4z M308.4,29.8c-0.3,0-0.5-0.1-0.8-0.1    c-0.3,0.2-0.5,0.3-0.9,0.6c0.3,0.1,0.6,0.1,0.8,0.1c0.2,0,0.3,0.1,0.5,0C308.3,30.3,308.4,30.1,308.4,29.8z M301.5,30.6    c0.4,0,0.8-0.1,1.2-0.1c0.4,0,0.5-0.2,0.3-0.5c0-0.1-0.1-0.1-0.1-0.1c-0.3,0-0.5-0.1-0.7-0.1c-0.1,0-0.1,0-0.2,0    C301.8,30,301.6,30.2,301.5,30.6z M310.3,30.6C310.3,30.5,310.3,30.5,310.3,30.6c-0.1-0.3-0.3-0.5-0.5-0.7c0-0.1-0.2-0.1-0.2-0.1    c-0.2,0-0.5,0-0.7,0.1c0,0.2,0,0.4,0,0.6C309.3,30.5,309.8,30.5,310.3,30.6z M300.8,39.3c0.1-0.1,0.1-0.2,0.1-0.4    c-0.1-0.2-0.3-0.4-0.5-0.4c-0.2,0-0.4,0-0.6-0.1c-0.2,0-0.4-0.1-0.6-0.1c-0.1,0.2,0,0.4,0.1,0.5c0.3,0,0.6,0,0.8,0.1    C300.3,39,300.6,39.2,300.8,39.3z M303.4,29.8c0,0.1,0.1,0.2,0.2,0.3c0.1,0.2,0.2,0.3,0.4,0.2c0.2,0,0.4,0,0.6,0    c0.2,0,0.3,0,0.5-0.1c0,0,0-0.1,0-0.1c-0.3-0.2-0.7-0.4-0.9-0.6C303.9,29.7,303.7,29.7,303.4,29.8z M311.2,39.3    c0.2-0.1,0.5-0.3,0.7-0.4c0.1,0,0.3-0.1,0.4,0c0.4,0.1,0.4,0.1,0.5-0.3c0-0.1,0-0.1,0-0.2c-0.1,0-0.2,0-0.3,0    c-0.3,0.1-0.6,0.1-0.9,0.2C311.1,38.6,311,38.8,311.2,39.3z M307.3,52.7c-0.5-0.4-1.9-0.4-2.4,0C305.7,52.9,306.5,52.9,307.3,52.7    z M305,26.9c0.6,0,1.2,0,1.8,0c-0.3-0.3-0.6-0.5-0.9-0.7C305.6,26.4,305.3,26.6,305,26.9z M312.3,44.1c0-0.7-0.3-2-0.5-2.3    c0,0.8,0.1,1.5,0.1,2.2C312,44.1,312.1,44.1,312.3,44.1z M306.6,36.4c0.5,0.1,0.9,0.2,1.4,0.3c-0.2-0.2-0.3-0.3-0.4-0.5    c-0.1-0.2-0.2-0.3-0.3-0.5C307,35.9,306.8,36.1,306.6,36.4z M304.7,35.7c-0.1,0.2-0.2,0.3-0.3,0.5c-0.1,0.2-0.2,0.3-0.3,0.5    c0.5-0.1,0.9-0.2,1.3-0.3C305.1,36.2,304.9,35.9,304.7,35.7z M305.9,28.8c-0.3,0.2-0.6,0.4-0.8,0.7c0.2,0.2,0.5,0.3,0.7,0.4    c0,0,0.1,0,0.1,0c0.2,0,0.5-0.4,0.5-0.6c0-0.1,0-0.1-0.1-0.2C306.3,29,306.1,28.9,305.9,28.8z M310.1,27.1    c-0.2-0.3-0.4-0.5-0.6-0.7c-0.1,0.1-0.3,0.2-0.4,0.3c-0.1,0.1-0.3,0.2-0.4,0.2c0,0,0,0,0,0.1C309.2,27,309.6,27,310.1,27.1z     M312.9,55.6c-0.2-0.1-0.4-0.2-0.5-0.4c-0.2-0.1-0.3-0.3-0.5-0.4c-0.2,0.2-0.3,0.4-0.1,0.6C312.1,55.7,312.5,55.7,312.9,55.6z     M303,27C303,27,303,26.9,303,27c-0.3-0.2-0.5-0.4-0.8-0.6c-0.2,0.2-0.4,0.4-0.6,0.7C302.1,27.1,302.6,27,303,27z M299.4,55.7    c0.1,0,0.2,0.1,0.3,0.1c0.2,0,0.4-0.1,0.5-0.2c0.3-0.2,0.3-0.4,0-0.6C299.9,55.2,299.7,55.4,299.4,55.7z M300.2,40.4    c0.3-0.4,0.1-0.8-0.3-0.8c-0.1,0-0.2,0-0.2,0.1c-0.1,0.1-0.1,0.2,0,0.3C299.8,40.1,300,40.2,300.2,40.4z M311.8,40.3    c0.2-0.2,0.4-0.3,0.5-0.4c0.1-0.1,0.1-0.3,0-0.4c-0.3-0.1-0.6,0.1-0.6,0.4C311.8,40,311.8,40.1,311.8,40.3z M300.8,30.3    c0.3-0.1,0.3-0.3,0.4-0.5c-0.3-0.2-0.3-0.2-0.6-0.3C300.7,29.8,300.8,30,300.8,30.3z M318.3,48.4c0.2,0.3,0.4,0.3,0.7,0    c0-0.1,0.1-0.2,0-0.2c0-0.1-0.2-0.1-0.2-0.1C318.6,48.1,318.5,48.2,318.3,48.4z M310.8,55.5c-0.1,0.2,0,0.3,0.1,0.4    c0.2,0.1,0.4,0.2,0.6,0C311.3,55.8,311.3,55.4,310.8,55.5z M293.8,48.5c-0.2-0.3-0.5-0.3-0.8-0.2    C293.2,48.7,293.4,48.8,293.8,48.5z M310.6,29.9c0.1,0.1,0.2,0.2,0.3,0.3c0.1-0.3,0.2-0.5,0.2-0.8    C310.9,29.5,310.7,29.7,310.6,29.9z M301,56.1c0.3-0.1,0.5-0.2,0.5-0.3c0-0.2-0.1-0.3-0.2-0.3C301,55.6,301,55.8,301,56.1z     M302.1,37.2c0.1,0.2,0.1,0.3,0.2,0.4c0.1-0.1,0.3-0.2,0.4-0.4C302.4,37.3,302.3,37.2,302.1,37.2z M309.9,37.3    c-0.2-0.1-0.4-0.1-0.6,0.1c0.2,0.1,0.3,0.2,0.4,0.3C309.8,37.5,309.8,37.4,309.9,37.3z"/>
		<path class="st0" d="M376,38c-0.1,0-0.2,0-0.3,0c-0.4,0-0.7,0-1.1,0c-0.1-0.3-0.1-7.7,0-8.2c0.4,0,0.9,0,1.3,0c0,0.3,0,0.7,0,1    c0,0,0,0,0.1,0c0.1-0.1,0.2-0.2,0.2-0.3c0.4-0.5,0.9-0.8,1.6-0.9c0.5-0.1,1-0.1,1.5,0.1c0.4,0.1,0.7,0.4,1,0.8    c0.1,0.1,0.1,0.2,0.2,0.3c0.1-0.1,0.2-0.2,0.2-0.3c1-1.1,2.6-1.2,3.5-0.7c0.6,0.3,0.9,0.7,1.1,1.3c0.1,0.3,0.1,0.6,0.1,0.9    c0,1.9,0,3.8,0,5.7c0,0,0,0.1,0,0.2c-0.5,0-0.9,0-1.4,0c0-0.2,0-0.3,0-0.4c0-1.7,0-3.4,0-5.2c0-0.2,0-0.4-0.1-0.7    c-0.1-0.3-0.3-0.5-0.5-0.7c-0.9-0.5-2.2,0-2.6,1c-0.2,0.4-0.2,0.8-0.2,1.3c0,1.4,0,2.8,0,4.3c0,0.1,0,0.2,0,0.4    c-0.5,0-0.9,0-1.4,0c0-0.1,0-0.3,0-0.4c0-1.6,0-3.2,0-4.8c0-0.3,0-0.6-0.1-1c-0.1-0.5-0.4-0.8-0.9-0.9c-0.9-0.2-1.9,0.4-2.2,1.3    c-0.2,0.5-0.2,0.9-0.2,1.4c0,1.3,0,2.7,0,4C376,37.7,376,37.9,376,38z"/>
		<path class="st0" d="M345,54.3c0.2,0.9,0.8,1.2,1.7,1.3c0.4,0,0.8,0,1.2-0.2c0.5-0.2,0.9-0.5,1.1-1.1c0.2-0.7,0.2-1.4,0.2-2.2    c-0.1,0.1-0.2,0.2-0.3,0.3c-0.4,0.4-0.8,0.7-1.4,0.8c-1,0.2-2,0.1-2.8-0.5c-0.5-0.4-0.9-0.8-1.1-1.4c-0.5-1.5-0.5-3,0.1-4.4    c0.5-1.1,1.3-1.8,2.5-2c1-0.2,2,0.1,2.7,0.9c0.1,0.1,0.1,0.1,0.2,0.2c0,0,0,0,0.1,0c0-0.3,0-0.6,0-0.9c0.4,0,0.8,0,1.2,0    c0,0.1,0,0.2,0,0.2c0,2.5,0,5.1,0,7.6c0,0.5-0.1,1-0.2,1.5c-0.3,1-0.9,1.7-2,2c-1,0.3-2.1,0.3-3.1-0.1c-0.9-0.3-1.5-1-1.6-2    c0,0,0-0.1,0-0.2C344.1,54.3,344.5,54.3,345,54.3z M344.8,49.3c0,0.6,0.1,1.3,0.3,1.8c0.3,0.6,0.7,0.9,1.4,1    c1.1,0.2,2-0.3,2.4-1.4c0.4-1.1,0.4-2.2,0.1-3.3c-0.3-0.9-1.1-1.6-2.5-1.4c-0.8,0.2-1.2,0.7-1.5,1.4    C344.8,48.2,344.8,48.8,344.8,49.3z"/>
		<path class="st0" d="M337.2,38c-0.5,0-1,0-1.5,0c-0.2,0-0.2-0.1-0.3-0.3c-0.2-0.6-0.4-1.1-0.6-1.7c-0.1-0.4-0.2-0.7-0.4-1.1    c0-0.1-0.1-0.2-0.1-0.3c-1.5,0-2.9,0-4.4,0c-0.4,1.1-0.8,2.2-1.2,3.3c-0.5,0-1,0-1.5,0c0,0,0,0,0,0c0,0,0,0,0,0c0,0,0,0,0-0.1    c1.4-3.6,2.7-7.3,4.1-10.9c0-0.1,0.1-0.1,0.1-0.2c0.6,0,1.1,0,1.7,0C334.4,30.5,335.8,34.3,337.2,38z M333.8,33.4    c-0.2-0.7-1.5-4.6-1.7-4.8c-0.6,1.6-1.2,3.2-1.8,4.8C331.5,33.4,332.7,33.4,333.8,33.4z"/>
		<path class="st0" d="M389.4,46c0-1.3,0-2.6,0-4c0.4,0,0.9,0,1.3,0c0,3.7,0,7.5,0,11.2c-0.4,0-0.8,0-1.2,0c0-0.3,0-0.6,0-1    c-0.1,0.1-0.1,0.1-0.2,0.1c-1,1.4-3.6,1.8-5-0.1c-0.4-0.6-0.7-1.2-0.8-1.9c-0.2-1.2-0.1-2.4,0.4-3.5c0,0,0-0.1,0.1-0.1    c0.7-1.4,1.9-2,3.6-1.8c0.5,0.1,0.9,0.3,1.3,0.7C389.1,45.8,389.2,45.9,389.4,46C389.4,46,389.4,46,389.4,46z M389.5,49.2    C389.5,49.2,389.5,49.2,389.5,49.2c0-0.1,0-0.2,0-0.2c0-0.6-0.1-1.1-0.4-1.7c-0.4-0.8-1.2-1.2-2.1-1.1c-0.9,0.1-1.4,0.7-1.8,1.5    c-0.2,0.5-0.2,1-0.2,1.5c0,0.8,0.1,1.5,0.5,2.2c0.2,0.4,0.5,0.6,0.8,0.8c0.8,0.4,2,0.4,2.7-0.8c0.1-0.2,0.2-0.4,0.3-0.7    C389.4,50.2,389.4,49.7,389.5,49.2z"/>
		<path class="st0" d="M333.3,53.2c-0.4,0-0.8,0-1.2,0c0-0.3,0-0.6,0-1c0,0,0,0-0.1,0c0,0-0.1,0.1-0.1,0.1c-0.6,0.8-1.5,1.2-2.5,1.1    c-1.3,0-2.1-0.7-2.7-1.8c-0.4-0.7-0.5-1.5-0.6-2.3c0-1.1,0.2-2.1,0.8-3c0.8-1.3,2.4-1.9,3.9-1.3c0.4,0.1,0.7,0.4,1,0.7    c0.1,0.1,0.1,0.1,0.2,0.2c0,0,0,0,0.1,0c0,0,0,0,0,0c0,0,0-0.1,0-0.1c0-1.2,0-2.5,0-3.7c0,0,0,0,0-0.1c0.4,0,0.8,0,1.2,0    C333.4,42.3,333.4,52.5,333.3,53.2z M332.1,49.2c0-0.6-0.1-1.2-0.3-1.7c-0.4-1-1.3-1.6-2.4-1.3c-0.8,0.2-1.4,0.7-1.6,1.5    c-0.3,1-0.3,2.1,0,3.1c0.1,0.3,0.3,0.6,0.5,0.9c0.7,0.9,2.1,0.9,2.9,0.2c0.3-0.3,0.5-0.7,0.7-1.1C332,50.2,332.1,49.7,332.1,49.2z    "/>
		<path class="st0" d="M363.4,47.6c-0.4,0-0.8,0-1.3,0c0-0.9,0.2-1.6,1-2.1c0.8-0.5,1.6-0.6,2.5-0.6c0.6,0,1.1,0.1,1.7,0.4    c0.8,0.4,1.2,1,1.2,1.9c0,1.5,0,3,0,4.4c0,0.2,0,0.3,0.1,0.5c0.1,0.2,0.2,0.3,0.5,0.3c0.1,0,0.2,0,0.3,0c0,0.3,0,0.7,0,1    c-0.4,0.1-0.8,0.2-1.2,0.1c-0.5-0.1-0.8-0.4-0.9-0.8c0-0.1-0.1-0.2-0.1-0.4c-0.1,0.1-0.2,0.2-0.3,0.3c-0.9,0.8-2.1,1.2-3.3,0.9    c-2-0.4-2.3-2.4-1.6-3.6c0.4-0.7,1-1,1.7-1.1c0.6-0.1,1.3-0.2,1.9-0.3c0.3,0,0.6-0.1,0.8-0.1c0.4-0.1,0.6-0.3,0.7-0.7    c0.1-0.8-0.2-1.2-1-1.4c-0.5-0.1-1.1-0.2-1.6,0c-0.6,0.1-1,0.5-1.1,1.1C363.4,47.3,363.4,47.4,363.4,47.6z M367.1,49.1    c-0.6,0.3-1.1,0.4-1.7,0.4c-0.2,0-0.5,0-0.7,0.1c-0.3,0.1-0.7,0.1-1,0.3c-0.5,0.2-0.7,0.6-0.7,1.1c0,0.5,0.2,0.9,0.7,1.1    c0.2,0.1,0.4,0.2,0.7,0.2c0.7,0.1,1.3-0.1,1.9-0.5c0.4-0.3,0.7-0.7,0.8-1.2C367.1,50.2,367.1,49.7,367.1,49.1z"/>
		<path class="st0" d="M376.3,47.6c-0.4,0-0.8,0-1.3,0c0-0.9,0.2-1.6,1-2.1c0.7-0.4,1.5-0.6,2.3-0.6c0.6,0,1.1,0.1,1.6,0.3    c1,0.4,1.4,1,1.4,2c0,1.4,0,2.8,0,4.3c0,0.1,0,0.2,0,0.3c0,0.1,0,0.2,0.1,0.3c0.1,0.2,0.2,0.3,0.5,0.3c0.1,0,0.2,0,0.3,0    c0,0.3,0,0.7,0,1c-0.4,0.1-0.8,0.2-1.2,0.1c-0.5-0.1-0.8-0.3-0.9-0.8c0-0.1-0.1-0.2-0.1-0.4c-0.1,0.1-0.2,0.2-0.3,0.3    c-1,0.9-2.1,1.2-3.4,1c-1.9-0.4-2.2-2.4-1.6-3.6c0.3-0.5,0.7-0.8,1.1-1c0.4-0.2,0.9-0.3,1.3-0.3c0.6-0.1,1.2-0.2,1.9-0.2    c0.1,0,0.3,0,0.4-0.1c0.2-0.1,0.4-0.2,0.4-0.5c0.2-0.7-0.1-1.3-0.7-1.6c-0.6-0.2-1.3-0.3-2-0.1c-0.5,0.1-0.8,0.5-0.9,1    C376.4,47.3,376.4,47.4,376.3,47.6z M380.1,49.2C380,49.2,380,49.2,380.1,49.2c-0.7,0.2-1.3,0.3-1.9,0.4c-0.4,0.1-0.9,0.1-1.3,0.3    c-0.5,0.2-0.7,0.6-0.8,1.1c0,0.5,0.2,0.9,0.7,1.1c0.2,0.1,0.5,0.2,0.7,0.2c0.6,0,1.2-0.1,1.8-0.5c0.4-0.3,0.7-0.6,0.8-1.1    C380.1,50.3,380.1,49.7,380.1,49.2z"/>
		<path class="st0" d="M400.5,52.3c0,0.3,0,0.6,0,1c-0.4,0.2-0.9,0.2-1.3,0.1c-0.4-0.1-0.6-0.4-0.7-0.7c0-0.1-0.1-0.3-0.1-0.4    c-0.1,0.1-0.2,0.2-0.3,0.3c-1,0.9-2.1,1.2-3.4,0.9c-1.2-0.3-2-1.4-1.9-2.6c0.1-1,0.6-1.6,1.5-2c0.4-0.2,0.9-0.3,1.3-0.3    c0.6-0.1,1.2-0.1,1.9-0.2c0.1,0,0.3,0,0.4-0.1c0.1-0.1,0.3-0.2,0.4-0.3c0.3-0.6,0-1.3-0.6-1.6c-0.7-0.3-1.5-0.3-2.2-0.1    c-0.4,0.2-0.7,0.5-0.8,0.9c0,0.1-0.1,0.3-0.1,0.4c-0.4,0-0.8,0-1.2,0c0-0.2,0-0.3,0-0.5c0.1-0.8,0.5-1.5,1.3-1.8    c0.7-0.3,1.5-0.4,2.3-0.4c0.6,0,1.1,0.2,1.6,0.4c0.7,0.4,1.1,1,1.1,1.8c0,1.5,0,3,0,4.4c0,0.1,0,0.2,0,0.3    c0.1,0.4,0.2,0.5,0.6,0.5C400.3,52.3,400.4,52.3,400.5,52.3z M398.2,49.1c-0.8,0.4-1.7,0.4-2.5,0.5c-0.3,0-0.5,0.1-0.8,0.2    c-0.3,0.1-0.6,0.4-0.7,0.8c-0.2,0.9,0.3,1.6,1.2,1.7c0.8,0.1,1.4-0.1,2-0.6c0.3-0.2,0.5-0.5,0.6-0.9    C398.3,50.3,398.2,49.7,398.2,49.1z"/>
		<path class="st0" d="M372.8,37.1c0,0.3,0,0.6,0,1c-0.5,0.2-1,0.2-1.4,0.1c-0.3-0.1-0.5-0.4-0.6-0.7c0-0.1-0.1-0.3-0.1-0.4    c-0.1,0.1-0.2,0.2-0.3,0.3c-1,0.9-2.2,1.2-3.5,0.9c-1-0.2-1.6-1.1-1.7-2.1c-0.1-1.2,0.4-2,1.6-2.5c0.5-0.2,1-0.2,1.4-0.3    c0.6-0.1,1.1-0.1,1.7-0.2c0.6-0.1,0.8-0.3,0.8-0.9c0-0.6-0.2-1-0.8-1.2c-0.6-0.2-1.3-0.2-1.9-0.1c-0.5,0.1-0.8,0.5-1,1    c0,0.1-0.1,0.3-0.1,0.4c-0.4,0-0.8,0-1.3,0c0-0.8,0.2-1.6,0.9-2.1c0.5-0.3,1-0.5,1.5-0.6c0.8-0.1,1.6-0.1,2.3,0.2    c0.2,0.1,0.4,0.1,0.6,0.2c0.7,0.4,1,0.9,1,1.6c0,0.4,0,0.8,0,1.2c0,1.1,0,2.2,0,3.3c0,0.1,0,0.2,0,0.3c0.1,0.4,0.2,0.5,0.6,0.5    C372.6,37.1,372.7,37.1,372.8,37.1z M370.6,33.9c-0.8,0.3-1.5,0.4-2.3,0.5c-0.3,0-0.5,0.1-0.8,0.2c-0.6,0.2-1,0.7-0.9,1.3    c0,0.6,0.5,1,1.1,1.2c0.8,0.1,1.5-0.1,2.1-0.5c0.5-0.3,0.7-0.8,0.8-1.3C370.6,34.8,370.6,34.4,370.6,33.9z"/>
		<path class="st0" d="M393.5,35.5c0.5,0,0.9,0,1.3,0c-0.1,0.2-0.1,0.4-0.1,0.5c-0.5,1.4-1.7,2.2-3.3,2.3c-1.9,0.1-3.5-1.2-3.8-3.3    c-0.1-1-0.1-2.1,0.3-3.1c1.2-2.7,4.3-2.8,5.9-1.4c0.3,0.3,0.5,0.6,0.7,0.9c0.4,0.9,0.5,1.9,0.4,2.9c-2,0-4,0-5.9,0    c-0.2,1.4,0.7,2.6,2.1,2.7c1.1,0.1,1.9-0.4,2.3-1.4C393.5,35.6,393.5,35.6,393.5,35.5z M393.5,33.3c0.1-1.4-0.9-2.4-2.3-2.4    c-1.5,0-2.3,1.4-2.2,2.4C390.6,33.3,392.1,33.3,393.5,33.3z"/>
		<path class="st0" d="M358.3,38c-0.5,0-0.9,0-1.4,0c0-0.1,0-0.3,0-0.4c0-1.6,0-3.1,0-4.7c0-0.3,0-0.6-0.1-0.9    c-0.2-0.7-0.7-1.1-1.4-1.1c-0.8,0-1.4,0.2-1.9,0.8c-0.3,0.3-0.4,0.7-0.5,1.1c0,0.3,0,0.5,0,0.8c0,1.3,0,2.7,0,4c0,0.1,0,0.2,0,0.4    c-0.5,0-0.9,0-1.4,0c0-2.7,0-5.4,0-8.2c0.4,0,0.8,0,1.3,0c0,0.4,0,0.7,0,1.1c0.2-0.2,0.3-0.3,0.4-0.4c0.5-0.5,1-0.7,1.6-0.8    c0.5-0.1,1.1-0.1,1.6,0.1c0.9,0.2,1.4,0.8,1.6,1.7c0.1,0.5,0.1,0.9,0.1,1.4c0,1.6,0,3.3,0,4.9C358.4,37.8,358.4,37.9,358.3,38z"/>
		<path class="st0" d="M347.8,29.9c0.5,0,0.9,0,1.4,0c0,2.7,0,5.4,0,8.1c-0.4,0-0.8,0-1.3,0c0-0.3,0-0.7,0-1.1    c-0.1,0.1-0.1,0.1-0.2,0.2c-0.7,0.9-1.7,1.2-2.8,1.1c-0.2,0-0.4-0.1-0.6-0.1c-0.8-0.2-1.3-0.7-1.6-1.6c-0.1-0.4-0.1-0.7-0.1-1.1    c0-1.8,0-3.6,0-5.4c0-0.1,0-0.1,0-0.2c0.4,0,0.9,0,1.4,0c0,0.2,0,0.3,0,0.4c0,1.6,0,3.2,0,4.8c0,0.1,0,0.3,0,0.4    c0.1,1.1,0.6,1.6,1.8,1.6c0.7,0,1.3-0.4,1.6-1c0.2-0.3,0.2-0.7,0.3-1c0.1-0.3,0.1-0.7,0.1-1c0-1.2,0-2.5,0-3.7    C347.8,30.1,347.8,30,347.8,29.9z"/>
		<path class="st0" d="M403.7,38c-0.5,0-0.9,0-1.4,0c0-0.1,0-0.3,0-0.4c0-1.6,0-3.1,0-4.7c0-0.3,0-0.7-0.1-1c-0.2-0.6-0.6-0.9-1.3-1    c-0.9-0.1-1.7,0.3-2.2,1.1c-0.2,0.4-0.3,0.9-0.3,1.3c0,1.4,0,2.8,0,4.3c0,0.1,0,0.2,0,0.4c-0.5,0-0.9,0-1.4,0c0-2.7,0-5.4,0-8.1    c0.4,0,0.8,0,1.3,0c0,0.3,0,0.7,0,1.1c0.1-0.1,0.2-0.2,0.3-0.2c0.9-1,2-1.2,3.3-1c0.9,0.2,1.4,0.7,1.7,1.5    c0.1,0.4,0.2,0.8,0.2,1.3c0,1.7,0,3.5,0,5.2C403.7,37.8,403.7,37.9,403.7,38z"/>
		<path class="st0" d="M358.1,45.1c0.5,0,0.9,0,1.3,0c0.1,0.3,0.1,7.7,0,8.1c-0.4,0-0.8,0-1.3,0c0-0.3,0-0.7,0-1.1    c-0.1,0.1-0.1,0.2-0.2,0.2c-0.5,0.7-1.2,1-2.1,1.1c-0.5,0-1,0-1.4-0.1c-0.8-0.2-1.2-0.7-1.4-1.5c-0.1-0.3-0.1-0.7-0.1-1    c0-1.8,0-3.6,0-5.4c0-0.1,0-0.2,0-0.3c0.5,0,0.9,0,1.4,0c0,0.1,0,0.3,0,0.4c0,1.6,0,3.2,0,4.8c0,0.3,0,0.6,0.1,0.9    c0.1,0.5,0.5,0.9,1.1,0.9c0.9,0.1,2-0.2,2.4-1.4c0.2-0.5,0.2-1,0.2-1.5c0-1.2,0-2.5,0-3.7C358.1,45.4,358.1,45.3,358.1,45.1z"/>
		<path class="st0" d="M363.7,37c0,0.3,0,0.7,0,1c-0.6,0.1-1.2,0.2-1.8,0c-0.3-0.1-0.5-0.3-0.6-0.5c-0.2-0.3-0.2-0.7-0.2-1.1    c0-0.6,0-1.1,0-1.7c0-1.1,0-2.2,0-3.3c0-0.1,0-0.2,0-0.4c-0.4,0-0.7,0-1.1,0c0-0.4,0-0.7,0-1.1c0.3,0,0.7,0,1.1,0    c0-0.8,0-1.5,0-2.2c0.5,0,0.9,0,1.4,0c0,0.7,0,1.5,0,2.3c0.4,0,0.9,0,1.3,0c0,0.4,0,0.7,0,1.1c-0.4,0-0.8,0-1.2,0    c0,0.1,0,0.2,0,0.3c0,1.7,0,3.3,0,5c0,0.6,0.2,0.7,0.8,0.7C363.4,37,363.5,37,363.7,37C363.7,37,363.7,37,363.7,37z"/>
		<path class="st0" d="M409.1,37c0,0.4,0,0.7,0,1.1c-0.4,0.1-0.8,0.1-1.2,0.1c-0.1,0-0.3,0-0.4,0c-0.5-0.1-0.8-0.3-0.9-0.8    c-0.1-0.4-0.2-0.7-0.2-1.1c0-1.6,0-3.2,0-4.8c0-0.1,0-0.3,0-0.4c-0.4,0-0.7,0-1.1,0c0-0.4,0-0.8,0-1.1c0.4,0,0.7,0,1.1,0    c0-0.8,0-1.5,0-2.3c0.5,0,0.9,0,1.4,0c0,0.7,0,1.5,0,2.3c0.4,0,0.9,0,1.3,0c0,0.4,0,0.8,0,1.1c-0.4,0-0.8,0-1.2,0    c0,0.1,0,0.2,0,0.3c0,1.6,0,3.3,0,4.9c0,0.1,0,0.2,0,0.3c0,0.3,0.2,0.4,0.5,0.5c0.1,0,0.3,0,0.4,0C408.8,37,409,37,409.1,37z"/>
		<path class="st0" d="M339.7,42.1c0.5,0,1,0,1.5,0c0.1,0.2,0.1,10.6,0,11.2c-0.5,0-1,0-1.5,0C339.7,49.5,339.7,45.8,339.7,42.1z"/>
		<path class="st0" d="M337.5,41.3c0-0.1,0-0.2,0-0.2c0-0.3,0-0.6,0-1c0.3,0,0.5,0,0.7-0.1c0.4-0.1,0.5-0.1,0.5-0.6    c0-0.2,0-0.4,0-0.6c0-2.9,0-5.7,0-8.6c0-0.1,0-0.3,0-0.4c0.5,0,0.9,0,1.3,0c0,0.1,0,0.2,0,0.3c0,3,0,6,0,9c0,0.3,0,0.6-0.1,1    c-0.1,0.5-0.4,0.8-0.8,1C338.6,41.4,338.1,41.4,337.5,41.3z"/>
		<path class="st0" d="M371.2,42.1c0.4,0,0.9,0,1.3,0c0,0,0,0,0,0c0,0,0,0,0,0c0,0,0,0.1,0,0.1c0,3.6,0,7.2,0,10.9c0,0,0,0.1,0,0.2    c-0.4,0-0.9,0-1.3,0C371.2,49.5,371.2,45.8,371.2,42.1z"/>
		<path class="st0" d="M336.7,46.5c-0.3,0-0.6,0-0.9,0c-0.1-1.5-0.2-3-0.2-4.5c0.5,0,0.9,0,1.4,0C336.9,43.5,336.8,45,336.7,46.5z"/>
		<path class="st0" d="M340.1,28.4c-0.5,0-0.9,0-1.3,0c0-0.5,0-1,0-1.5c0.4,0,0.9,0,1.3,0C340.1,27.4,340.1,27.9,340.1,28.4z"/>
		<path class="st0" d="M306.9,58.4c-0.1-0.1-0.3-0.1-0.4-0.2c-0.2-0.1-0.5-0.1-0.7,0c-0.2,0.2-0.4,0.1-0.7,0.1    c-0.2,0-0.2-0.1-0.3-0.3c-0.1-0.2,0-0.3,0.2-0.3c0.1,0,0.2,0,0.2,0c0.2,0,0.3,0,0.4-0.1c0.3-0.2,0.6-0.2,0.9,0    c0.1,0.1,0.3,0.1,0.5,0c0.2-0.1,0.3-0.1,0.4,0.1c0.1,0.1,0,0.3-0.1,0.4C307.2,58.3,307,58.4,306.9,58.4z"/>
		<path class="st0" d="M305.9,23.7c0.2,0,0.3,0.2,0.3,0.4c0,0.2-0.2,0.4-0.5,0.4c-0.2,0-0.3-0.2-0.3-0.4    C305.5,23.9,305.7,23.7,305.9,23.7z"/>
		<path class="st0" d="M309.5,24.4c0-0.2,0.2-0.4,0.4-0.4c0.2,0,0.4,0.2,0.4,0.3c0,0.2-0.2,0.4-0.4,0.4    C309.7,24.8,309.5,24.6,309.5,24.4z"/>
		<path class="st0" d="M301.8,24c0.3,0,0.4,0.1,0.4,0.3c0,0.2-0.2,0.4-0.4,0.4c-0.2,0-0.4-0.3-0.4-0.5C301.5,24.1,301.6,24,301.8,24    z"/>
		<path class="st0" d="M306.2,29.3c0,0.2-0.1,0.4-0.4,0.4c-0.2,0-0.3-0.1-0.3-0.3c0-0.2,0.2-0.4,0.4-0.4    C306.1,29,306.2,29.2,306.2,29.3z"/>
	</g>
</g>
<style xmlns="http://www.w3.org/1999/xhtml" charset="utf-8" type="text/css" class="firebugResetStyles">/* See license.txt for terms of usage */
/** reset styling **/
.firebugResetStyles {
    z-index: 2147483646 !important;
    top: 0 !important;
    left: 0 !important;
    display: block !important;
    border: 0 none !important;
    margin: 0 !important;
    padding: 0 !important;
    outline: 0 !important;
    min-width: 0 !important;
    max-width: none !important;
    min-height: 0 !important;
    max-height: none !important;
    position: fixed !important;
    transform: rotate(0deg) !important;
    transform-origin: 50% 50% !important;
    border-radius: 0 !important;
    box-shadow: none !important;
    background: transparent none !important;
    pointer-events: none !important;
    white-space: normal !important;
}
style.firebugResetStyles {
    display: none !important;
}

.firebugBlockBackgroundColor {
    background-color: transparent !important;
}

.firebugResetStyles:before, .firebugResetStyles:after {
    content: "" !important;
}
/**actual styling to be modified by firebug theme**/
.firebugCanvas {
    display: none !important;
}

/* * * * * * * * * * * * * * * * * * * * * * * * * * * * * * * * * * * * * * * * * * * * * * * * */
.firebugLayoutBox {
    width: auto !important;
    position: static !important;
}

.firebugLayoutBoxOffset {
    opacity: 0.8 !important;
    position: fixed !important;
}

.firebugLayoutLine {
    opacity: 0.4 !important;
    background-color: #000000 !important;
}

.firebugLayoutLineLeft, .firebugLayoutLineRight {
    width: 1px !important;
    height: 100% !important;
}

.firebugLayoutLineTop, .firebugLayoutLineBottom {
    width: 100% !important;
    height: 1px !important;
}

.firebugLayoutLineTop {
    margin-top: -1px !important;
    border-top: 1px solid #999999 !important;
}

.firebugLayoutLineRight {
    border-right: 1px solid #999999 !important;
}

.firebugLayoutLineBottom {
    border-bottom: 1px solid #999999 !important;
}

.firebugLayoutLineLeft {
    margin-left: -1px !important;
    border-left: 1px solid #999999 !important;
}

/* * * * * * * * * * * * * * * * * * * * * * * * * * * * * * * * * * * * * * * * * * * * * * * * */
.firebugLayoutBoxParent {
    border-top: 0 none !important;
    border-right: 1px dashed #E00 !important;
    border-bottom: 1px dashed #E00 !important;
    border-left: 0 none !important;
    position: fixed !important;
    width: auto !important;
}

.firebugRuler{
    position: absolute !important;
}

.firebugRulerH {
    top: -15px !important;
    left: 0 !important;
    width: 100% !important;
    height: 14px !important;
    background: url("data:image/png,%89PNG%0D%0A%1A%0A%00%00%00%0DIHDR%00%00%13%88%00%00%00%0E%08%02%00%00%00L%25a%0A%00%00%00%04gAMA%00%00%D6%D8%D4OX2%00%00%00%19tEXtSoftware%00Adobe%20ImageReadyq%C9e%3C%00%00%04%F8IDATx%DA%EC%DD%D1n%E2%3A%00E%D1%80%F8%FF%EF%E2%AF2%95%D0D4%0E%C1%14%B0%8Fa-%E9%3E%CC%9C%87n%B9%81%A6W0%1C%A6i%9A%E7y%0As8%1CT%A9R%A5J%95*U%AAT%A9R%A5J%95*U%AAT%A9R%A5J%95*U%AAT%A9R%A5J%95*U%AAT%A9R%A5J%95*U%AAT%A9R%A5J%95*U%AAT%A9R%A5J%95*U%AATE9%FE%FCw%3E%9F%AF%2B%2F%BA%97%FDT%1D~K(%5C%9D%D5%EA%1B%5C%86%B5%A9%BDU%B5y%80%ED%AB*%03%FAV9%AB%E1%CEj%E7%82%EF%FB%18%BC%AEJ8%AB%FA'%D2%BEU9%D7U%ECc0%E1%A2r%5DynwVi%CFW%7F%BB%17%7Dy%EACU%CD%0E%F0%FA%3BX%FEbV%FEM%9B%2B%AD%BE%AA%E5%95v%AB%AA%E3E5%DCu%15rV9%07%B5%7F%B5w%FCm%BA%BE%AA%FBY%3D%14%F0%EE%C7%60%0EU%AAT%A9R%A5J%95*U%AAT%A9R%A5J%95*U%AAT%A9R%A5J%95*U%AAT%A9R%A5J%95*U%AAT%A9R%A5JU%88%D3%F5%1F%AE%DF%3B%1B%F2%3E%DAUCNa%F92%D02%AC%7Dm%F9%3A%D4%F2%8B6%AE*%BF%5C%C2Ym~9g5%D0Y%95%17%7C%C8c%B0%7C%18%26%9CU%CD%13i%F7%AA%90%B3Z%7D%95%B4%C7%60%E6E%B5%BC%05%B4%FBY%95U%9E%DB%FD%1C%FC%E0%9F%83%7F%BE%17%7DkjMU%E3%03%AC%7CWj%DF%83%9An%BCG%AE%F1%95%96yQ%0Dq%5Dy%00%3Et%B5'%FC6%5DS%95pV%95%01%81%FF'%07%00%00%00%00%00%00%00%00%00%F8x%C7%F0%BE%9COp%5D%C9%7C%AD%E7%E6%EBV%FB%1E%E0(%07%E5%AC%C6%3A%ABi%9C%8F%C6%0E9%AB%C0'%D2%8E%9F%F99%D0E%B5%99%14%F5%0D%CD%7F%24%C6%DEH%B8%E9rV%DFs%DB%D0%F7%00k%FE%1D%84%84%83J%B8%E3%BA%FB%EF%20%84%1C%D7%AD%B0%8E%D7U%C8Y%05%1E%D4t%EF%AD%95Q%BF8w%BF%E9%0A%BF%EB%03%00%00%00%00%00%00%00%00%00%B8vJ%8E%BB%F5%B1u%8Cx%80%E1o%5E%CA9%AB%CB%CB%8E%03%DF%1D%B7T%25%9C%D5(%EFJM8%AB%CC'%D2%B2*%A4s%E7c6%FB%3E%FA%A2%1E%80~%0E%3E%DA%10x%5D%95Uig%15u%15%ED%7C%14%B6%87%A1%3B%FCo8%A8%D8o%D3%ADO%01%EDx%83%1A~%1B%9FpP%A3%DC%C6'%9C%95gK%00%00%00%00%00%00%00%00%00%20%D9%C9%11%D0%C0%40%AF%3F%EE%EE%92%94%D6%16X%B5%BCMH%15%2F%BF%D4%A7%C87%F1%8E%F2%81%AE%AAvzr%DA2%ABV%17%7C%E63%83%E7I%DC%C6%0Bs%1B%EF6%1E%00%00%00%00%00%00%00%00%00%80cr%9CW%FF%7F%C6%01%0E%F1%CE%A5%84%B3%CA%BC%E0%CB%AA%84%CE%F9%BF)%EC%13%08WU%AE%AB%B1%AE%2BO%EC%8E%CBYe%FE%8CN%ABr%5Dy%60~%CFA%0D%F4%AE%D4%BE%C75%CA%EDVB%EA(%B7%F1%09g%E5%D9%12%00%00%00%00%00%00%00%00%00H%F6%EB%13S%E7y%5E%5E%FB%98%F0%22%D1%B2'%A7%F0%92%B1%BC%24z3%AC%7Dm%60%D5%92%B4%7CEUO%5E%F0%AA*%3BU%B9%AE%3E%A0j%94%07%A0%C7%A0%AB%FD%B5%3F%A0%F7%03T%3Dy%D7%F7%D6%D4%C0%AAU%D2%E6%DFt%3F%A8%CC%AA%F2%86%B9%D7%F5%1F%18%E6%01%F8%CC%D5%9E%F0%F3z%88%AA%90%EF%20%00%00%00%00%00%00%00%00%00%C0%A6%D3%EA%CFi%AFb%2C%7BB%0A%2B%C3%1A%D7%06V%D5%07%A8r%5D%3D%D9%A6%CAu%F5%25%CF%A2%99%97zNX%60%95%AB%5DUZ%D5%FBR%03%AB%1C%D4k%9F%3F%BB%5C%FF%81a%AE%AB'%7F%F3%EA%FE%F3z%94%AA%D8%DF%5B%01%00%00%00%00%00%00%00%00%00%8E%FB%F3%F2%B1%1B%8DWU%AAT%A9R%A5J%95*U%AAT%A9R%A5J%95*U%AAT%A9R%A5J%95*U%AAT%A9R%A5J%95*U%AAT%A9R%A5J%95*U%AAT%A9R%A5J%95*U%AAT%A9R%A5J%95*UiU%C7%BBe%E7%F3%B9%CB%AAJ%95*U%AAT%A9R%A5J%95*U%AAT%A9R%A5J%95*U%AAT%A9R%A5J%95*U%AAT%A9R%A5J%95*U%AAT%A9R%A5J%95*U%AAT%A9R%A5J%95*U%AAT%A9R%A5*%AAj%FD%C6%D4%5Eo%90%B5Z%ADV%AB%D5j%B5Z%ADV%AB%D5j%B5Z%ADV%AB%D5j%B5Z%ADV%AB%D5j%B5Z%ADV%AB%D5j%B5Z%ADV%AB%D5j%B5Z%ADV%AB%D5j%B5%86%AF%1B%9F%98%DA%EBm%BBV%AB%D5j%B5Z%ADV%AB%D5j%B5Z%ADV%AB%D5j%B5Z%ADV%AB%D5j%B5Z%ADV%AB%D5j%B5Z%ADV%AB%D5j%B5Z%ADV%AB%D5j%B5Z%AD%D6%E4%F58%01%00%00%00%00%00%00%00%00%00%00%00%00%00%40%85%7F%02%0C%008%C2%D0H%16j%8FX%00%00%00%00IEND%AEB%60%82") repeat-x !important;
    border-top: 1px solid #BBBBBB !important;
    border-right: 1px dashed #BBBBBB !important;
    border-bottom: 1px solid #000000 !important;
}

.firebugRulerV {
    top: 0 !important;
    left: -15px !important;
    width: 14px !important;
    height: 100% !important;
    background: url("data:image/png,%89PNG%0D%0A%1A%0A%00%00%00%0DIHDR%00%00%00%0E%00%00%13%88%08%02%00%00%00%0E%F5%CB%10%00%00%00%04gAMA%00%00%D6%D8%D4OX2%00%00%00%19tEXtSoftware%00Adobe%20ImageReadyq%C9e%3C%00%00%06~IDATx%DA%EC%DD%D1v%A20%14%40Qt%F1%FF%FF%E4%97%D9%07%3BT%19%92%DC%40(%90%EEy%9A5%CB%B6%E8%F6%9Ac%A4%CC0%84%FF%DC%9E%CF%E7%E3%F1%88%DE4%F8%5D%C7%9F%2F%BA%DD%5E%7FI%7D%F18%DDn%BA%C5%FB%DF%97%BFk%F2%10%FF%FD%B4%F2M%A7%FB%FD%FD%B3%22%07p%8F%3F%AE%E3%F4S%8A%8F%40%EEq%9D%BE8D%F0%0EY%A1Uq%B7%EA%1F%81%88V%E8X%3F%B4%CEy%B7h%D1%A2E%EBohU%FC%D9%AF2fO%8BBeD%BE%F7X%0C%97%A4%D6b7%2Ck%A5%12%E3%9B%60v%B7r%C7%1AI%8C%BD%2B%23r%00c0%B2v%9B%AD%CA%26%0C%1Ek%05A%FD%93%D0%2B%A1u%8B%16-%95q%5Ce%DCSO%8E%E4M%23%8B%F7%C2%FE%40%BB%BD%8C%FC%8A%B5V%EBu%40%F9%3B%A72%FA%AE%8C%D4%01%CC%B5%DA%13%9CB%AB%E2I%18%24%B0n%A9%0CZ*Ce%9C%A22%8E%D8NJ%1E%EB%FF%8F%AE%CAP%19*%C3%BAEKe%AC%D1%AAX%8C*%DEH%8F%C5W%A1e%AD%D4%B7%5C%5B%19%C5%DB%0D%EF%9F%19%1D%7B%5E%86%BD%0C%95%A12%AC%5B*%83%96%CAP%19%F62T%86%CAP%19*%83%96%CA%B8Xe%BC%FE)T%19%A1%17xg%7F%DA%CBP%19*%C3%BA%A52T%86%CAP%19%F62T%86%CA%B0n%A9%0CZ%1DV%C6%3D%F3%FCH%DE%B4%B8~%7F%5CZc%F1%D6%1F%AF%84%F9%0F6%E6%EBVt9%0E~%BEr%AF%23%B0%97%A12T%86%CAP%19%B4T%86%CA%B8Re%D8%CBP%19*%C3%BA%A52huX%19%AE%CA%E5%BC%0C%7B%19*CeX%B7h%A9%0C%95%E1%BC%0C%7B%19*CeX%B7T%06%AD%CB%5E%95%2B%BF.%8F%C5%97%D5%E4%7B%EE%82%D6%FB%CF-%9C%FD%B9%CF%3By%7B%19%F62T%86%CA%B0n%D1R%19*%A3%D3%CA%B0%97%A12T%86uKe%D0%EA%B02*%3F1%99%5DB%2B%A4%B5%F8%3A%7C%BA%2B%8Co%7D%5C%EDe%A8%0C%95a%DDR%19%B4T%C66%82fA%B2%ED%DA%9FC%FC%17GZ%06%C9%E1%B3%E5%2C%1A%9FoiB%EB%96%CA%A0%D5qe4%7B%7D%FD%85%F7%5B%ED_%E0s%07%F0k%951%ECr%0D%B5C%D7-g%D1%A8%0C%EB%96%CA%A0%A52T%C6)*%C3%5E%86%CAP%19%D6-%95A%EB*%95q%F8%BB%E3%F9%AB%F6%E21%ACZ%B7%22%B7%9B%3F%02%85%CB%A2%5B%B7%BA%5E%B7%9C%97%E1%BC%0C%EB%16-%95%A12z%AC%0C%BFc%A22T%86uKe%D0%EA%B02V%DD%AD%8A%2B%8CWhe%5E%AF%CF%F5%3B%26%CE%CBh%5C%19%CE%CB%B0%F3%A4%095%A1%CAP%19*Ce%A8%0C%3BO*Ce%A8%0C%95%A12%3A%AD%8C%0A%82%7B%F0v%1F%2FD%A9%5B%9F%EE%EA%26%AF%03%CA%DF9%7B%19*Ce%A8%0C%95%A12T%86%CA%B8Ze%D8%CBP%19*Ce%A8%0C%95%D1ae%EC%F7%89I%E1%B4%D7M%D7P%8BjU%5C%BB%3E%F2%20%D8%CBP%19*Ce%A8%0C%95%A12T%C6%D5*%C3%5E%86%CAP%19*Ce%B4O%07%7B%F0W%7Bw%1C%7C%1A%8C%B3%3B%D1%EE%AA%5C%D6-%EBV%83%80%5E%D0%CA%10%5CU%2BD%E07YU%86%CAP%19*%E3%9A%95%91%D9%A0%C8%AD%5B%EDv%9E%82%FFKOee%E4%8FUe%A8%0C%95%A12T%C6%1F%A9%8C%C8%3D%5B%A5%15%FD%14%22r%E7B%9F%17l%F8%BF%ED%EAf%2B%7F%CF%ECe%D8%CBP%19*Ce%A8%0C%95%E1%93~%7B%19%F62T%86%CAP%19*Ce%A8%0C%E7%13%DA%CBP%19*Ce%A8%0CZf%8B%16-Z%B4h%D1R%19f%8B%16-Z%B4h%D1R%19%B4%CC%16-Z%B4h%D1R%19%B4%CC%16-Z%B4h%D1%A2%A52%CC%16-Z%B4h%D1%A2%A52h%99-Z%B4h%D1%A2%A52h%99-Z%B4h%D1%A2EKe%98-Z%B4h%D1%A2EKe%D02%5B%B4h%D1%A2EKe%D02%5B%B4h%D1%A2E%8B%96%CA0%5B%B4h%D1%A2E%8B%96%CA%A0e%B6h%D1%A2E%8B%96%CA%A0e%B6h%D1%A2E%8B%16-%95a%B6h%D1%A2E%8B%16-%95A%CBl%D1%A2E%8B%16-%95A%CBl%D1%A2E%8B%16-Z*%C3l%D1%A2E%8B%16-Z*%83%96%D9%A2E%8B%16-Z*%83%96%D9%A2E%8B%16-Z%B4T%86%D9%A2E%8B%16-Z%B4T%06-%B3E%8B%16-Z%B4T%06-%B3E%8B%16-Z%B4h%A9%0C%B3E%8B%16-Z%B4h%A9%0CZf%8B%16-Z%B4h%A9%0CZf%8B%16-Z%B4h%D1R%19f%8B%16-Z%B4h%D1R%19%B4%CC%16-Z%B4h%D1R%19%B4%CC%16-Z%B4h%D1%A2%A52%CC%16-Z%B4h%D1%A2%A52h%99-Z%B4h%D1%A2%A52h%99-Z%B4h%D1%A2EKe%98-Z%B4h%D1%A2EKe%D02%5B%B4h%D1%A2EKe%D02%5B%B4h%D1%A2E%8B%96%CA0%5B%B4h%D1%A2E%8B%96%CA%A0e%B6h%D1%A2E%8B%96%CA%A0e%B6h%D1%A2E%8B%16-%95a%B6h%D1%A2E%8B%16-%95A%CBl%D1%A2E%8B%16-%95A%CBl%D1%A2E%8B%16-Z*%C3l%D1%A2E%8B%16-Z*%83%96%D9%A2E%8B%16-Z*%83%96%D9%A2E%8B%16-Z%B4T%86%D9%A2E%8B%16-Z%B4T%06-%B3E%8B%16-Z%B4T%06-%B3E%8B%16-Z%B4h%A9%0C%B3E%8B%16-Z%B4h%A9%0CZf%8B%16-Z%B4h%A9%0CZf%8B%16-Z%B4h%D1R%19f%8B%16-Z%B4h%D1R%19%B4%CC%16-Z%B4h%D1R%19%B4%CC%16-Z%B4h%D1%A2%A52%CC%16-Z%B4h%D1%A2%A52h%99-Z%B4h%D1%A2%A52h%99-Z%B4h%D1%A2EKe%98-Z%B4h%D1%A2EKe%D02%5B%B4h%D1%A2EKe%D02%5B%B4h%D1%A2E%8B%96%CA0%5B%B4h%D1%A2E%8B%96%CA%A0e%B6h%D1%A2E%8B%96%CA%A0e%B6h%D1%A2E%8B%16-%95a%B6h%D1%A2E%8B%16-%95A%CBl%D1%A2E%8B%16-%95A%CBl%D1%A2E%8B%16-Z*%C3l%D1%A2E%8B%16-Z*%83%96%D9%A2E%8B%16-Z*%83%96%D9%A2E%8B%16-Z%B4T%86%D9%A2E%8B%16-Z%B4T%06-%B3E%8B%16-Z%B4%AE%A4%F5%25%C0%00%DE%BF%5C'%0F%DA%B8q%00%00%00%00IEND%AEB%60%82") repeat-y !important;
    border-left: 1px solid #BBBBBB !important;
    border-right: 1px solid #000000 !important;
    border-bottom: 1px dashed #BBBBBB !important;
}

.overflowRulerX &gt; .firebugRulerV {
    left: 0 !important;
}

.overflowRulerY &gt; .firebugRulerH {
    top: 0 !important;
}

/* * * * * * * * * * * * * * * * * * * * * * * * * * * * * * * * * * * * * * * * * * * * * * * * */
.fbProxyElement {
    position: fixed !important;
    pointer-events: auto !important;
}
</style></svg>